,Predicted_Adjusted,AuditLowriskProbability,AuditHighriskProbability
1,0,1,0
2,0,1,0
3,0,0.999997001322971,2.99867702856856e-06
4,0,0.608796056301742,0.391203943698258
5,1,0.263491347755909,0.736508652244091
6,0,1,0
7,1,0.0165232407298329,0.983476759270167
8,0,0.999998362936906,1.63706309361918e-06
9,0,0.999977331822396,2.26681776042512e-05
10,0,0.999999135809291,8.64190708536622e-07
11,0,1,0
12,0,1,0
13,0,1,0
14,0,1,0
15,1,0.0203003302639173,0.979699669736083
16,0,0.999993409397797,6.59060220265024e-06
17,0,1,0
18,0,1,0
19,0,0.539906151224246,0.460093848775754
20,0,0.505595397258173,0.494404602741827
21,0,0.999121480904723,0.000878519095277291
22,0,0.998976257362377,0.00102374263762298
23,0,1,0
24,0,0.998763927703429,0.001236072296571
25,0,1,0
26,0,0.999851542171009,0.000148457828990547
27,0,0.999886348940615,0.000113651059384843
28,0,0.988351366458342,0.0116486335416579
29,0,0.859557816459763,0.140442183540237
30,0,0.999417896727128,0.000582103272872161
31,0,1,0
32,0,0.615312775590421,0.384687224409579
33,0,1,0
34,0,1,0
35,0,0.999988030677154,1.19693228457808e-05
36,0,1,0
37,0,0.958594711431875,0.0414052885681252
38,0,0.999990650714304,9.34928569605132e-06
39,0,0.982548776376497,0.0174512236235034
40,0,0.999923909612848,7.609038715147e-05
41,1,0.0086738379420187,0.991326162057981
42,0,1,0
43,0,0.860730361008752,0.139269638991248
44,0,1,0
45,0,0.996386191558086,0.00361380844191355
46,1,0.367836529628318,0.632163470371682
47,0,1,0
48,1,0.0723253170188085,0.927674682981191
49,0,1,0
50,1,0.245298985874383,0.754701014125617
51,0,0.99996599239733,3.40076026703206e-05
52,1,2.34688671044703e-05,0.999976531132896
53,0,0.942238151462931,0.0577618485370692
54,0,1,0
55,0,1,0
56,0,0.999442610750465,0.000557389249534567
57,0,0.999897037157456,0.000102962842543856
58,0,0.999969240652716,3.07593472836122e-05
59,0,0.999999110039874,8.89960126257966e-07
60,0,0.952757805554282,0.0472421944457184
61,0,0.999582321617561,0.000417678382439184
62,0,0.99985936181361,0.000140638186390111
63,0,0.999997293966745,2.70603325474094e-06
64,0,0.805224721044983,0.194775278955017
65,0,0.992492267853458,0.00750773214654184
66,0,0.999992016773626,7.98322637385478e-06
67,1,0.025717753524064,0.974282246475936
68,0,0.999013012619141,0.00098698738085871
69,0,1,0
70,0,1,0
71,0,0.995864626127243,0.00413537387275668
72,0,1,0
73,0,1,0
74,0,0.999999201125487,7.98874513479214e-07
75,1,0.1278342589547,0.8721657410453
76,0,1,0
77,0,1,0
78,1,0.00378012980254239,0.996219870197458
79,0,0.999680854735541,0.00031914526445861
80,0,1,0
81,0,0.999953825279702,4.61747202976778e-05
82,0,0.990690628280364,0.00930937171963549
83,0,0.999998957219496,1.04278050438676e-06
84,1,0.0415915705440491,0.958408429455951
85,0,0.999998669155935,1.33084406480635e-06
86,0,0.991729370241975,0.00827062975802541
87,0,1,0
88,0,0.983954478122463,0.0160455218775368
89,0,0.999997994426518,2.00557348211354e-06
90,0,1,0
91,1,0.00649403505151791,0.993505964948482
92,0,0.986304993759133,0.0136950062408672
93,0,1,0
94,1,0.000986677827587878,0.999013322172412
95,1,0.0667416261456717,0.933258373854328
96,1,0.449932605014165,0.550067394985835
97,0,0.974178701718365,0.0258212982816349
98,0,0.866590747299086,0.133409252700914
99,0,0.885916259319907,0.114083740680093
100,0,0.99995656063896,4.3439361040329e-05
101,0,0.995727030246957,0.00427296975304259
102,0,0.999049048392117,0.000950951607883266
103,1,0.101991587735158,0.898008412264842
104,0,0.999998337146726,1.66285327432152e-06
105,0,0.592815956033083,0.407184043966917
106,0,0.999995796452366,4.20354763401983e-06
107,0,0.999997844027999,2.15597200151965e-06
108,0,0.960289391286267,0.0397106087137328
109,0,1,0
110,0,0.999999533849669,4.66150331114392e-07
111,0,1,0
112,0,0.999970672725297,2.93272747029825e-05
113,1,0.0299154140496988,0.970084585950301
114,0,0.99999845289101,1.54710899006262e-06
115,0,0.999998793425623,1.20657437676692e-06
116,0,0.684711057219519,0.315288942780481
117,0,0.999681109112285,0.000318890887714911
118,0,1,0
119,1,0.105826245693523,0.894173754306477
120,0,1,0
121,0,1,0
122,0,1,0
123,0,1,0
124,0,0.999999460482539,5.39517461239563e-07
125,1,0.0209085324465805,0.979091467553419
126,0,0.999992967656243,7.03234375716998e-06
127,0,1,0
128,1,0.00357409815558007,0.99642590184442
129,0,0.931782182352601,0.0682178176473992
130,0,1,0
131,0,0.999997772417997,2.22758200315598e-06
132,0,1,0
133,1,0.027809437968767,0.972190562031233
134,0,0.899197258000069,0.100802741999931
135,0,0.963194410991289,0.0368055890087109
136,0,1,0
137,0,1,0
138,0,1,0
139,0,1,0
140,0,1,0
141,0,1,0
142,0,1,0
143,0,1,0
145,0,0.998880870606496,0.0011191293935036
146,0,0.999762775611827,0.000237224388172721
147,1,0.119882976634152,0.880117023365848
148,0,0.998747407990267,0.00125259200973291
149,0,1,0
150,1,0.0406363149345863,0.959363685065414
151,0,0.994817747314957,0.00518225268504344
152,1,0.0629210550591083,0.937078944940892
153,0,0.919229319053189,0.0807706809468107
154,0,0.999992435710036,7.56428996435805e-06
155,0,0.999952538286217,4.74617137834013e-05
156,1,0.03957041313976,0.96042958686024
157,0,0.993849094491822,0.00615090550817824
158,0,0.956289050992632,0.043710949007368
159,0,0.733215337639423,0.266784662360577
160,0,0.990628148233748,0.00937185176625175
161,0,0.739742586338065,0.260257413661935
162,0,0.877364670659951,0.122635329340049
163,0,0.928498806187319,0.0715011938126813
164,0,0.941789565924347,0.0582104340756533
165,0,0.99999896845129,1.03154870997429e-06
166,1,0.0392662730844499,0.96073372691555
167,0,1,0
168,0,0.99657129601339,0.00342870398660987
169,1,0.321395134548581,0.678604865451419
170,0,1,0
171,0,1,0
172,0,1,0
173,0,0.999981837153994,1.81628460057602e-05
174,0,1,0
175,0,1,0
176,0,0.920380423139919,0.0796195768600813
177,0,0.999995170775937,4.82922406332121e-06
178,0,1,0
179,1,4.16710460255931e-05,0.999958328953974
180,1,0.163339739997833,0.836660260002167
181,0,0.91819547561383,0.0818045243861705
182,0,1,0
183,0,0.999976997470971,2.3002529029284e-05
184,0,0.999109669951358,0.000890330048641988
185,0,0.946345735040489,0.0536542649595111
186,0,1,0
187,0,1,0
188,0,1,0
189,1,0.00934162048368925,0.990658379516311
190,0,0.984394390744733,0.0156056092552668
191,0,0.99993012957101,6.98704289894884e-05
192,0,0.997418084072773,0.00258191592722715
193,0,1,0
194,0,1,0
195,0,1,0
196,0,0.987312836461854,0.0126871635381458
197,0,0.999987445445764,1.25545542362711e-05
198,0,0.751999123126017,0.248000876873983
199,0,1,0
200,0,0.999999647281914,3.5271808609867e-07
201,0,0.998071397749704,0.00192860225029612
202,0,0.998542268951737,0.00145773104826344
203,0,0.999995264221068,4.73577893169381e-06
204,0,1,0
205,0,0.997746492802449,0.00225350719755095
206,0,0.999998652293756,1.34770624414586e-06
207,1,0.0146525970996986,0.985347402900301
208,0,0.997772461544224,0.00222753845577598
209,0,1,0
210,1,0.0063141642161515,0.993685835783849
211,0,1,0
212,0,1,0
213,0,0.999673574729315,0.000326425270685382
214,0,0.99999361428336,6.38571664015317e-06
215,1,0.225897831862516,0.774102168137484
216,0,1,0
217,0,1,0
218,0,1,0
219,0,1,0
220,1,0.488474660817563,0.511525339182437
221,0,0.996478627512196,0.00352137248780369
222,0,1,0
223,0,1,0
224,0,0.999999129010922,8.70989077869467e-07
225,0,1,0
226,0,1,0
227,0,0.99835758496568,0.00164241503431963
228,0,0.999694143938679,0.000305856061321528
229,0,0.999462101016372,0.000537898983627549
230,0,0.9974080031182,0.00259199688179998
231,0,0.978601877316235,0.021398122683765
232,0,0.998584859464221,0.00141514053577874
233,0,0.999988621837267,1.13781627334423e-05
234,0,0.999480918076845,0.000519081923154976
235,0,0.999998980721067,1.01927893337447e-06
236,0,0.999809084383972,0.000190915616028051
237,1,0.368818318623751,0.631181681376249
238,1,0.0103596796395834,0.989640320360417
239,0,1,0
240,0,1,0
241,1,0.000541511897642732,0.999458488102357
242,0,0.984242854189165,0.015757145810835
243,0,0.999999566565961,4.33434039134219e-07
244,0,0.767190549991975,0.232809450008025
245,0,0.610113943118379,0.389886056881621
246,1,0.0793969346639348,0.920603065336065
247,0,0.996692437934904,0.00330756206509555
248,0,0.999977357917763,2.26420822366536e-05
249,1,3.87916032835722e-05,0.999961208396716
250,0,0.99740519913345,0.00259480086654983
251,0,0.886716345842481,0.113283654157519
252,0,1,0
253,0,0.9330609603998,0.0669390396001999
254,0,1,0
255,0,1,0
256,0,0.668304404137746,0.331695595862254
257,0,0.999930943572669,6.9056427331298e-05
258,0,0.999629986857911,0.000370013142089089
259,0,0.990162256202169,0.00983774379783052
260,0,0.994996857839566,0.00500314216043382
261,1,0.343189145355825,0.656810854644175
262,0,0.999946770334402,5.32296655977548e-05
263,0,1,0
264,0,0.999978972347798,2.10276522022797e-05
265,0,0.999997454672705,2.54532729469169e-06
266,0,1,0
267,0,0.806628723323352,0.193371276676648
268,0,0.81011726598883,0.18988273401117
269,0,1,0
270,0,1,0
271,1,0.45345957799335,0.54654042200665
272,0,0.999999325622512,6.74377487859389e-07
273,0,1,0
274,0,0.98823675677725,0.0117632432227503
275,0,1,0
277,1,0.0964044280985944,0.903595571901406
278,1,0.0281660500320575,0.971833949967942
279,0,0.996913390441036,0.00308660955896407
280,1,0.0181611038436637,0.981838896156336
281,0,0.995462899069399,0.00453710093060119
282,1,0.109089848730698,0.890910151269302
283,1,0.0607384724018863,0.939261527598114
284,0,0.967083543446252,0.032916456553748
285,0,0.999986784840123,1.32151598774125e-05
286,0,1,0
287,0,1,0
288,0,0.99978535615742,0.000214643842580447
289,0,1,0
290,0,1,0
291,0,0.999980356007859,1.96439921409621e-05
292,0,1,0
293,1,0.00261117501936203,0.997388824980638
294,0,0.999995307759235,4.69224076530168e-06
295,0,1,0
296,0,0.999998992265811,1.00773418878707e-06
297,0,0.999999628950171,3.71049828565501e-07
298,0,0.999538685654613,0.000461314345386915
299,1,0.00894891379259632,0.991051086207404
300,0,1,0
301,0,0.999999546529338,4.53470662286029e-07
302,0,0.99613425731726,0.00386574268274028
303,1,0.373453175023078,0.626546824976922
304,0,0.99997675259545,2.32474045497409e-05
305,0,1,0
306,1,0.0364519481747075,0.963548051825292
307,0,1,0
308,0,1,0
309,0,0.999979456842091,2.05431579090219e-05
310,0,0.984481901265489,0.0155180987345115
311,0,1,0
312,0,0.999917900572522,8.20994274782163e-05
313,1,0.0226707621872259,0.977329237812774
314,0,1,0
315,0,1,0
316,0,1,0
317,0,1,0
318,0,0.99122335070102,0.00877664929897989
319,0,1,0
320,0,0.935959828354652,0.0640401716453476
321,0,0.999999570780141,4.29219858934908e-07
322,1,0.0121243770903284,0.987875622909672
323,0,0.999404966894671,0.000595033105329357
324,0,0.998790342641215,0.00120965735878457
325,0,1,0
326,1,0.0407659954146163,0.959234004585384
327,0,0.999955155102481,4.48448975190451e-05
328,0,1,0
329,0,0.99415355525289,0.00584644474711047
330,0,0.979542034510364,0.0204579654896363
331,0,0.997069929935849,0.00293007006415083
332,1,0.11270648929544,0.88729351070456
333,0,1,0
334,0,0.999991991810279,8.00818972099001e-06
335,0,0.999954157362202,4.58426377980715e-05
336,0,0.940921544799279,0.0590784552007208
337,0,0.997507254792353,0.00249274520764691
338,0,1,0
339,0,1,0
340,0,0.968507346566917,0.0314926534330826
341,1,0.0294853981160832,0.970514601883917
342,0,0.99999922133409,7.78665909959534e-07
343,1,0.0840782773879644,0.915921722612036
344,0,1,0
345,0,0.999814842922192,0.000185157077807495
346,0,0.999971152227648,2.88477723518528e-05
347,0,0.997597343884642,0.00240265611535844
348,0,1,0
349,0,1,0
350,0,0.995379114692333,0.00462088530766664
351,0,0.999999642132265,3.57867734820985e-07
352,0,0.921427306303293,0.0785726936967066
353,0,1,0
354,0,1,0
355,0,0.999996750887128,3.24911287224563e-06
356,0,0.998434126613101,0.00156587338689925
357,0,0.994086206441168,0.00591379355883246
358,0,0.999995322687876,4.6773121235337e-06
359,0,1,0
360,0,1,0
361,0,0.999706203589515,0.000293796410485253
362,0,0.998377626038703,0.00162237396129657
363,0,0.999999313970136,6.86029863980336e-07
364,0,0.999999598349352,4.01650648007293e-07
365,0,0.999612571173285,0.000387428826715039
366,0,1,0
367,0,0.839981564593161,0.160018435406839
368,0,0.98118990035539,0.0188100996446098
369,1,0.148268668406513,0.851731331593487
370,0,0.999995702539497,4.29746050312517e-06
371,0,1,0
373,1,0.0531610091335964,0.946838990866404
374,0,0.999832171179399,0.000167828820601114
375,0,0.943483621962907,0.0565163780370932
376,0,0.999864483337626,0.000135516662373772
377,0,0.999996935884814,3.0641151855967e-06
378,0,0.99900405206916,0.000995947930840385
379,0,1,0
380,0,1,0
381,0,0.986964518511961,0.0130354814880386
382,0,0.99998709103417,1.29089658299971e-05
383,0,1,0
384,0,0.99999957852733,4.21472670082174e-07
385,0,1,0
386,1,0.16428375753292,0.83571624246708
387,0,1,0
388,0,0.999964175185848,3.58248141524534e-05
389,0,1,0
390,0,0.999956652941625,4.33470583751259e-05
391,0,1,0
392,0,0.918052988260482,0.0819470117395185
393,0,1,0
395,0,1,0
396,1,0.0429801959775273,0.957019804022473
397,0,0.990277543114497,0.00972245688550337
398,0,0.999255985169755,0.000744014830245039
399,0,1,0
400,0,1,0
401,0,0.999995332380509,4.66761949138043e-06
402,1,0.369676206326646,0.630323793673354
403,0,0.999999172404668,8.27595332398108e-07
404,0,0.999994924990111,5.07500988896915e-06
405,0,0.999741849868048,0.000258150131951487
406,0,0.999932471440182,6.75285598180631e-05
407,0,1,0
408,0,0.987375812746531,0.0126241872534695
409,0,0.976767296496765,0.0232327035032355
410,0,1,0
411,0,0.991340974158338,0.00865902584166153
412,1,0.0584977608538111,0.941502239146189
413,0,0.999998604698203,1.39530179657135e-06
414,0,0.997634219885836,0.002365780114164
415,0,0.999996243930145,3.75606985476818e-06
416,0,0.935170120031105,0.0648298799688947
417,0,1,0
418,0,0.999928415767572,7.15842324279085e-05
419,1,0.0518759893363183,0.948124010663682
420,0,0.999927611592024,7.23884079763197e-05
421,0,0.999995405062827,4.59493717308225e-06
422,1,0.0442114129367156,0.955788587063284
423,1,0.0196431699675038,0.980356830032496
424,1,0.373485400201883,0.626514599798117
425,0,0.998805822211753,0.00119417778824681
426,0,0.999995687046347,4.31295365292305e-06
427,0,1,0
428,1,3.38407022573151e-05,0.999966159297743
429,0,0.992703271352498,0.00729672864750177
430,0,0.999484755121569,0.000515244878430591
431,0,0.999761709038391,0.000238290961608808
432,0,0.998165580086739,0.00183441991326113
433,0,0.995885138176165,0.00411486182383473
434,0,0.99487612438709,0.00512387561290954
435,1,0.303491498003349,0.696508501996651
436,0,1,0
437,0,0.999999304590093,6.95409907016372e-07
438,0,1,0
439,0,0.929546832704431,0.0704531672955688
440,0,0.99688842988982,0.00311157011018025
441,0,0.999897388758974,0.000102611241026091
442,0,1,0
443,0,0.997241028052273,0.0027589719477271
444,1,0.137131145706104,0.862868854293896
445,1,0.0978500394438901,0.90214996055611
446,0,1,0
447,1,0.265663990946085,0.734336009053915
448,1,0.0646572348496393,0.935342765150361
449,0,0.999993993673295,6.00632670510975e-06
450,0,1,0
451,0,0.999995515574675,4.48442532508821e-06
452,0,0.999994228714785,5.771285214621e-06
453,0,0.996948257521302,0.00305174247869785
454,0,0.999942460540817,5.75394591833962e-05
455,0,0.999998666838925,1.33316107500567e-06
456,0,0.99997286986398,2.71301360203041e-05
457,0,0.84126419270284,0.15873580729716
458,1,0.0226702586190317,0.977329741380968
459,1,0.0382499145386447,0.961750085461355
460,0,1,0
461,1,0.12151276495197,0.87848723504803
462,0,0.999418652648093,0.00058134735190652
463,1,0.40879850419519,0.59120149580481
464,0,1,0
465,0,0.999997488300469,2.51169953057955e-06
466,0,0.999858518702693,0.000141481297306629
467,0,0.999997744700863,2.25529913740233e-06
468,0,0.999959348185197,4.0651814802539e-05
469,0,0.999996768117657,3.23188234309498e-06
470,1,0.0667260368377453,0.933273963162255
471,0,0.999966337687073,3.36623129267454e-05
472,0,0.717776760650056,0.282223239349944
473,0,0.999893846040477,0.00010615395952258
474,0,1,0
475,0,1,0
476,1,0.00079885676780167,0.999201143232198
477,0,0.877668669623194,0.122331330376806
478,1,0.0338286573687698,0.96617134263123
479,0,0.995597134741209,0.00440286525879102
480,0,1,0
481,0,0.995908466573345,0.00409153342665506
482,0,1,0
483,0,0.786701294656603,0.213298705343397
484,0,0.998736847047764,0.00126315295223581
485,1,0.0142273374488747,0.985772662551125
486,1,0.365433004100473,0.634566995899527
487,0,0.999993274173376,6.72582662410972e-06
488,0,0.93487855492766,0.0651214450723397
489,0,0.998393713743018,0.00160628625698179
490,0,0.999988951696093,1.10483039066055e-05
491,0,0.736075450115308,0.263924549884692
492,0,0.999945306988672,5.46930113281121e-05
493,0,1,0
494,1,0.249064777545968,0.750935222454032
495,0,0.942321177237686,0.0576788227623138
496,0,0.95447663134168,0.0455233686583199
497,1,0.028949656913387,0.971050343086613
498,0,1,0
499,0,1,0
500,0,0.997480096011327,0.00251990398867305
501,0,1,0
502,0,0.974959230726521,0.0250407692734792
503,0,0.999994968115251,5.03188474861153e-06
504,0,0.999800305369709,0.000199694630290913
505,0,0.999994238273333,5.7617266670909e-06
506,0,0.825632198074153,0.174367801925847
507,0,0.999991330689032,8.66931096829333e-06
509,0,0.99999589066391,4.10933609022311e-06
510,1,0.0313276201033661,0.968672379896634
511,0,0.713273934240952,0.286726065759048
512,0,0.999987378236908,1.2621763091742e-05
513,0,0.999990843789013,9.15621098659947e-06
514,0,0.50629847673532,0.49370152326468
515,0,1,0
516,0,1,0
517,0,0.999867296408834,0.000132703591165916
518,0,1,0
519,0,0.98976183348667,0.0102381665133297
520,1,0.0143019694293101,0.98569803057069
521,1,0.00896237047043202,0.991037629529568
522,0,0.997125408123761,0.002874591876239
523,0,0.999784479823176,0.000215520176824043
524,0,0.999998374417336,1.62558266371239e-06
525,0,1,0
526,0,0.998227909731679,0.00177209026832078
527,0,1,0
528,0,0.995588252211544,0.0044117477884559
529,0,0.999999377983926,6.22016073599283e-07
530,0,0.964956058548747,0.0350439414512531
531,0,0.999942973781564,5.70262184362587e-05
532,0,0.99998942045944,1.05795405600675e-05
533,1,0.00264172989546263,0.997358270104537
534,0,1,0
535,0,0.99998385805978,1.61419402201996e-05
536,0,0.95711807703852,0.0428819229614804
537,0,1,0
538,0,0.990322570036765,0.0096774299632346
539,0,1,0
540,0,0.999985602087336,1.43979126644948e-05
541,0,0.996276350250765,0.00372364974923517
542,0,0.999961890722361,3.81092776391219e-05
543,1,0.0821191917040544,0.917880808295946
544,0,1,0
545,1,0.062337297964755,0.937662702035245
546,0,1,0
547,0,1,0
548,1,0.0172181254538969,0.982781874546103
549,0,0.999959866177362,4.01338226379692e-05
550,0,0.867871179115715,0.132128820884285
551,0,0.796246627705369,0.203753372294631
552,0,0.996060685086654,0.00393931491334626
553,0,1,0
554,0,1,0
555,0,0.999999118161384,8.81838616427478e-07
556,0,1,0
557,1,0.241863850993503,0.758136149006497
558,0,0.960415754014245,0.0395842459857549
559,0,1,0
560,1,0.0206527316203431,0.979347268379657
561,0,1,0
562,0,0.999664599780495,0.000335400219504828
563,1,0.103493909952324,0.896506090047676
564,1,0.0214258767281772,0.978574123271823
565,0,0.774406743790195,0.225593256209805
566,0,0.994121250673858,0.00587874932614172
567,1,0.00610275691970485,0.993897243080295
568,0,1,0
569,0,0.999960433225891,3.95667741088732e-05
570,0,0.998523428054295,0.00147657194570522
571,0,0.998481147184963,0.00151885281503678
572,0,0.998288031995383,0.00171196800461655
573,0,1,0
574,0,0.999818067923443,0.000181932076557214
575,0,1,0
576,1,0.0323007434421845,0.967699256557816
577,0,1,0
579,0,1,0
580,0,0.969367859193838,0.0306321408061616
581,0,1,0
582,0,1,0
583,0,1,0
584,0,0.821588083145675,0.178411916854325
585,0,1,0
586,0,1,0
587,0,0.99822692369378,0.00177307630621959
588,0,0.99993813406945,6.18659305501075e-05
589,0,0.999491838945189,0.000508161054810707
590,0,1,0
591,0,0.999997612516124,2.38748387606007e-06
592,1,0.0260991338052191,0.973900866194781
594,0,0.973256013508635,0.0267439864913651
595,0,1,0
596,0,1,0
597,1,0.256778154086816,0.743221845913184
598,0,0.721543400836281,0.278456599163719
599,0,0.997143273884335,0.00285672611566479
600,1,0.00431919125371205,0.995680808746288
601,0,1,0
602,0,1,0
603,0,0.999982118867743,1.78811322568835e-05
604,1,0.300107099100863,0.699892900899137
605,0,0.999996376278013,3.62372198728398e-06
606,0,1,0
607,0,0.999668181050767,0.000331818949232885
608,0,1,0
609,0,0.995630112178804,0.00436988782119603
610,0,0.99828044844608,0.00171955155392011
611,0,1,0
612,1,0.0328621646122993,0.967137835387701
613,0,1,0
614,0,0.999705667476727,0.000294332523272694
615,0,0.999318185061408,0.000681814938592391
617,0,0.999997651288584,2.34871141616024e-06
618,0,0.999999269940121,7.30059879057183e-07
619,0,0.768848084160235,0.231151915839765
620,0,1,0
621,0,0.998196820653618,0.00180317934638166
622,0,1,0
623,0,0.999961652999084,3.83470009163111e-05
624,0,0.999820123530378,0.000179876469622255
625,1,0.0423260411335212,0.957673958866479
626,0,0.999999403716822,5.96283177736781e-07
627,0,1,0
628,0,0.999998629801239,1.37019876078698e-06
629,0,0.999994814940182,5.18505981783255e-06
630,0,0.988552726958273,0.011447273041727
631,0,0.997662137399273,0.00233786260072666
632,0,1,0
633,0,0.999772530014468,0.000227469985531916
634,0,0.994549270900264,0.00545072909973564
635,0,0.999710972363391,0.000289027636609027
636,0,0.913887908075747,0.0861120919242527
637,0,0.999923202605726,7.67973942742433e-05
638,0,0.999086248649269,0.000913751350731338
639,0,0.999999589755972,4.10244028201618e-07
640,0,0.997949208819385,0.00205079118061518
641,0,0.992488849453472,0.00751115054652747
642,1,8.67658060921261e-06,0.999991323419391
643,0,1,0
644,0,1,0
645,0,0.998417313457154,0.00158268654284614
646,0,0.99998919894849,1.08010515099761e-05
647,0,1,0
648,0,0.999992066342251,7.93365774894286e-06
649,0,0.694812902938587,0.305187097061413
650,1,1.4883459728332e-05,0.999985116540272
651,0,0.999993324127029,6.67587297104649e-06
652,0,1,0
653,0,0.999895789605076,0.000104210394923981
654,1,1.47037676878625e-06,0.999998529623231
655,0,0.999996807900564,3.19209943613241e-06
656,0,0.999998850118061,1.1498819392313e-06
657,1,0.0303656582602723,0.969634341739728
658,1,0.00127304630450453,0.998726953695495
659,0,0.997596411126602,0.00240358887339754
660,0,0.999948002672403,5.19973275970901e-05
661,0,0.999999604733266,3.95266733760662e-07
662,0,0.999941908077616,5.80919223841829e-05
663,0,0.999998457930951,1.54206904933475e-06
664,0,1,0
665,0,0.999411008681959,0.000588991318041342
666,0,0.999996770950798,3.22904920170845e-06
667,1,0.0653991069096894,0.934600893090311
668,0,1,0
669,1,0.00819779651728147,0.991802203482719
670,0,1,0
671,0,0.999995316413093,4.68358690726025e-06
672,0,0.99122551499015,0.00877448500984999
673,1,0.296028415743268,0.703971584256732
674,0,1,0
675,0,0.995895002405618,0.00410499759438173
676,0,1,0
677,0,0.982155266935104,0.0178447330648959
678,1,0.0141018727874059,0.985898127212594
679,0,1,0
680,0,1,0
681,0,0.999999569664434,4.30335565720562e-07
682,1,0.428620255019025,0.571379744980975
683,0,1,0
684,0,0.999989192541304,1.08074586962847e-05
685,0,1,0
686,0,0.995090623111809,0.00490937688819062
687,0,1,0
688,0,1,0
689,0,0.815982209051556,0.184017790948444
690,0,1,0
691,0,0.90967177678685,0.0903282232131503
692,0,1,0
693,0,1,0
694,0,1,0
695,0,1,0
696,0,0.697078024456163,0.302921975543838
697,0,0.99970840712092,0.000291592879080405
698,0,0.997751011100478,0.00224898889952233
699,0,0.999958923162552,4.10768374479707e-05
700,0,0.966905002450329,0.0330949975496712
701,1,0.000147865258466773,0.999852134741533
702,0,0.821466639745683,0.178533360254317
703,0,0.998776108230981,0.00122389176901896
704,0,0.822596918979563,0.177403081020437
705,0,0.999233351936163,0.000766648063837191
706,0,0.999957585525521,4.24144744793624e-05
707,0,0.999428105488564,0.000571894511436145
708,0,0.993480373577546,0.0065196264224538
709,1,0.04211256231462,0.95788743768538
710,1,0.0489207620854264,0.951079237914574
711,0,0.998789329807642,0.00121067019235757
712,0,0.9960145675589,0.00398543244109971
713,0,0.999999530817614,4.6918238649191e-07
714,1,0.26483317714474,0.73516682285526
715,1,0.00121309737472375,0.998786902625276
716,1,0.00715528014122913,0.992844719858771
717,0,0.999997547482381,2.45251761912226e-06
718,0,1,0
719,0,1,0
720,0,0.999988711939639,1.12880603612769e-05
721,0,0.884895624094389,0.115104375905611
722,0,0.999121981818102,0.000878018181898176
723,0,1,0
724,0,1,0
725,0,0.999987828023333,1.2171976667112e-05
726,1,0.25892173382882,0.74107826617118
727,1,0.353658122396424,0.646341877603576
728,0,1,0
729,1,0.0602237500733303,0.93977624992667
730,0,0.999980146662897,1.98533371030785e-05
731,0,0.998215438974887,0.001784561025113
732,0,0.959539533800668,0.0404604661993319
733,0,0.999996270991447,3.72900855324168e-06
734,0,1,0
735,0,0.999974918122138,2.50818778621527e-05
736,0,0.634736753091508,0.365263246908492
737,0,0.999999532566823,4.67433177052213e-07
738,1,0.0218646598686004,0.9781353401314
739,0,0.514194847350201,0.485805152649799
740,1,0.0141129832426533,0.985887016757347
741,0,1,0
742,0,1,0
743,1,0.12665857113429,0.87334142886571
744,1,0.00235136036512251,0.997648639634877
745,0,1,0
746,0,0.99999537328107,4.6267189302306e-06
747,0,1,0
748,0,1,0
749,0,1,0
751,0,1,0
752,0,1,0
753,0,1,0
755,0,0.859181458968492,0.140818541031508
756,0,0.937468422408551,0.0625315775914492
757,1,0.0284112285356646,0.971588771464335
758,0,0.607994505005991,0.392005494994009
759,0,1,0
760,0,0.96922626155823,0.0307737384417697
761,0,0.891343348388579,0.108656651611422
763,0,0.999994970933605,5.02906639526208e-06
764,0,1,0
765,0,0.999977379901878,2.26200981222903e-05
766,0,1,0
767,0,0.639420647699171,0.360579352300829
768,1,0.00527380817049072,0.994726191829509
769,1,0.0086428816069275,0.991357118393073
770,0,0.999990897540306,9.10245969365728e-06
771,0,0.682320789473613,0.317679210526387
772,0,0.985673589062533,0.0143264109374671
773,0,0.736179564030772,0.263820435969228
774,0,0.998249016155331,0.00175098384466887
775,0,0.99987127116336,0.000128728836640339
776,1,0.219211217696526,0.780788782303474
777,1,0.0174022689465911,0.982597731053409
778,0,0.999989420300105,1.05796998947466e-05
779,0,0.999993690185882,6.3098141179565e-06
780,0,0.998180167831172,0.0018198321688277
781,0,1,0
782,0,0.999999567090624,4.32909376300294e-07
783,0,0.999999429506021,5.70493978601003e-07
784,0,1,0
785,0,0.745261391185577,0.254738608814423
786,0,1,0
787,0,0.99284046636618,0.00715953363381965
788,1,0.252533798940873,0.747466201059127
789,0,1,0
790,0,0.999999018342109,9.81657891021814e-07
791,0,0.999994856407935,5.14359206464802e-06
792,1,0.00211017455625773,0.997889825443742
793,1,0.047778667668691,0.952221332331309
794,0,0.999988307439254,1.16925607462654e-05
795,0,0.999997243368943,2.75663105695593e-06
796,0,1,0
797,0,0.999740054675442,0.000259945324558448
798,0,0.999786289123789,0.00021371087621146
800,0,0.998835125919361,0.00116487408063877
801,0,0.842101083679933,0.157898916320067
802,0,1,0
803,1,0.0234157101831232,0.976584289816877
804,0,1,0
805,0,0.998196273520829,0.00180372647917114
806,0,0.995544375533295,0.0044556244667052
807,0,0.999538785301645,0.000461214698354952
808,0,0.999994222789023,5.77721097753914e-06
809,0,0.802256526117521,0.197743473882479
810,0,0.99851633755162,0.00148366244838006
811,0,0.999984655732226,1.53442677736992e-05
812,0,0.995037516524322,0.00496248347567747
813,0,0.739911309065774,0.260088690934226
815,1,0.0548293143527935,0.945170685647207
816,0,1,0
817,0,0.999987327057147,1.26729428530947e-05
818,0,0.999997099131583,2.90086841679419e-06
819,0,0.999923509775451,7.6490224548881e-05
820,0,1,0
821,0,0.999580202039468,0.000419797960531755
822,0,1,0
823,0,1,0
824,0,0.998989691722969,0.00101030827703117
825,0,1,0
826,0,0.991999028645138,0.00800097135486159
827,0,0.507981427030974,0.492018572969026
828,0,1,0
829,0,0.880374016579967,0.119625983420033
830,0,1,0
831,0,0.999984245781487,1.57542185131751e-05
832,0,1,0
834,1,0.461126390555874,0.538873609444126
835,0,1,0
836,0,0.992146435623883,0.0078535643761166
837,0,1,0
838,0,0.999976677577123,2.33224228764936e-05
839,1,0.217103832306701,0.782896167693299
840,0,1,0
841,0,1,0
842,1,3.2079889642711e-05,0.999967920110357
843,0,0.999992877830591,7.12216940888229e-06
844,0,0.999999690332973,3.096670274442e-07
845,0,1,0
846,0,1,0
847,1,0.0311292499406237,0.968870750059376
848,0,0.992269603911548,0.00773039608845192
849,1,0.00276940257943947,0.997230597420561
850,1,0.00714119882296693,0.992858801177033
851,0,0.994031167427401,0.00596883257259916
852,0,0.999998320660141,1.67933985860823e-06
853,1,0.365923631127088,0.634076368872912
854,0,1,0
855,0,1,0
856,0,0.999999464155435,5.35844565258639e-07
857,1,0.252703667368738,0.747296332631262
858,0,0.541020089191647,0.458979910808353
859,0,0.999996657028038,3.34297196179036e-06
860,1,0.0369855412242287,0.963014458775771
861,0,0.965512171216182,0.0344878287838176
862,1,0.197879303729288,0.802120696270712
863,1,0.00530016939723632,0.994699830602764
864,1,0.0388993807221324,0.961100619277868
865,0,0.999995598908744,4.40109125584467e-06
866,0,0.998557474433111,0.00144252556688884
867,1,0.0405678124876052,0.959432187512395
868,0,1,0
869,0,0.968623421516855,0.0313765784831447
870,1,0.0282344683081813,0.971765531691819
871,0,0.999979931725039,2.00682749605553e-05
872,0,1,0
873,0,1,0
874,0,1,0
875,0,0.999950431884804,4.95681151957251e-05
876,0,0.902484437315767,0.0975155626842333
877,0,0.998092991124147,0.00190700887585343
878,0,0.999993630591379,6.36940862071952e-06
879,0,1,0
880,0,0.999870732065268,0.000129267934732036
881,0,0.999988485535588,1.15144644117606e-05
882,0,0.999562894202237,0.000437105797762979
883,0,0.999969735727987,3.02642720134086e-05
884,0,0.998213953173177,0.00178604682682284
885,0,0.536511026127454,0.463488973872546
886,0,1,0
887,0,0.999999689657403,3.10342596523095e-07
888,0,0.999995578394772,4.42160522823463e-06
889,0,1,0
890,0,0.999863189766353,0.00013681023364681
891,1,0.000340409565429467,0.999659590434571
892,1,0.0512877287623456,0.948712271237654
893,0,1,0
894,1,0.0567399250116593,0.943260074988341
895,0,0.999997383787856,2.61621214395358e-06
897,1,0.0178285443997751,0.982171455600225
898,0,1,0
899,0,1,0
900,0,0.999900900654678,9.90993453221678e-05
901,0,0.999988580591691,1.14194083086127e-05
902,0,1,0
903,1,0.0551972791888986,0.944802720811101
904,0,1,0
905,0,0.870098919840179,0.129901080159821
906,0,0.998871016765834,0.00112898323416622
907,1,0.000280083198802905,0.999719916801197
908,0,0.986026562899431,0.0139734371005695
909,0,0.991894119991293,0.00810588000870722
910,0,0.999999578995524,4.21004475978283e-07
911,0,1,0
912,0,0.999998815693169,1.18430683125528e-06
913,0,1,0
914,0,0.997318766089649,0.00268123391035143
915,0,0.999992974831077,7.02516892353076e-06
916,1,0.371075036536871,0.628924963463129
917,0,0.99059563151767,0.00940436848232976
918,1,0.00512746308145218,0.994872536918548
919,0,1,0
920,0,0.999999546513321,4.53486679223651e-07
921,0,0.995899180679029,0.00410081932097083
922,0,1,0
923,0,1,0
924,0,0.999746914811821,0.000253085188178832
925,0,1,0
926,1,0.00922523258258279,0.990774767417417
927,1,0.0904917257525666,0.909508274247433
928,0,0.999999692360758,3.07639241692762e-07
929,0,1,0
930,1,0.213575131012376,0.786424868987624
931,0,0.85532898937659,0.14467101062341
932,0,0.999999328493164,6.71506835549135e-07
933,0,1,0
934,0,0.967565967161237,0.0324340328387627
935,0,0.981363430772323,0.0186365692276774
936,0,1,0
937,0,1,0
938,0,0.586204352390009,0.413795647609991
939,0,0.999985476345912,1.45236540880593e-05
940,0,1,0
941,0,0.690356434800069,0.309643565199931
942,1,0.0789294492623492,0.921070550737651
943,0,1,0
945,0,1,0
946,1,0.494755442236581,0.505244557763419
947,0,1,0
948,0,1,0
949,0,0.670075984904974,0.329924015095026
950,0,0.999997340056716,2.65994328389023e-06
951,1,1.62890230397394e-05,0.99998371097696
952,0,1,0
953,0,0.999973515714873,2.64842851266332e-05
954,1,0.258734256638787,0.741265743361213
955,0,0.991011691220027,0.0089883087799735
956,1,0.0322061341956176,0.967793865804382
957,0,0.999998504045934,1.49595406594492e-06
958,0,0.999714973715134,0.000285026284865576
959,1,0.00399433967335361,0.996005660326646
960,0,1,0
961,0,1,0
962,0,0.999967035399086,3.2964600913996e-05
963,0,0.512302979461778,0.487697020538222
964,0,0.999788226270618,0.000211773729381647
965,1,0.0199049222663811,0.980095077733619
966,0,0.609204870518278,0.390795129481722
967,0,0.674961184881729,0.325038815118271
968,1,0.0556442929268783,0.944355707073122
969,0,0.999979684610815,2.03153891847956e-05
970,0,0.998831245347223,0.00116875465277715
971,0,1,0
972,0,0.999426307971588,0.000573692028412256
973,0,1,0
974,0,0.999893814990198,0.00010618500980194
975,0,1,0
976,0,0.79032382181674,0.20967617818326
977,0,0.997887057017715,0.00211294298228488
978,0,1,0
979,1,0.00854099330949598,0.991459006690504
980,0,0.999923574009652,7.6425990348441e-05
981,0,0.998344478628358,0.00165552137164218
982,0,0.993968540716341,0.00603145928365851
983,0,0.998435323042292,0.00156467695770814
984,1,0.478207553945523,0.521792446054477
985,0,1,0
986,0,0.999985204106429,1.47958935708865e-05
987,0,0.99999241898485,7.58101514998345e-06
988,1,0.452633580570587,0.547366419429413
989,0,0.999928928277081,7.10717229193444e-05
990,1,0.00496313707984652,0.995036862920153
992,0,0.999974829992456,2.51700075438276e-05
993,1,0.148864541155605,0.851135458844395
994,1,0.00747008822738771,0.992529911772612
995,0,0.999998544058597,1.45594140289078e-06
996,0,1,0
997,0,0.992480486109082,0.0075195138909177
998,0,0.999999010462593,9.89537406874155e-07
999,1,0.0135292527949414,0.986470747205059
1000,1,0.165194907959352,0.834805092040648
1001,0,1,0
1002,0,0.993829651219613,0.00617034878038703
1003,0,0.999993161061168,6.83893883221382e-06
1004,0,0.999978566484854,2.14335151458279e-05
1005,0,0.999999309534208,6.9046579185238e-07
1006,0,0.987403461424816,0.0125965385751835
1007,0,0.999026887429311,0.000973112570689043
1008,0,0.999998276589581,1.72341041897409e-06
1009,0,1,0
1010,0,1,0
1011,0,0.548074143492067,0.451925856507933
1012,0,0.960153229546205,0.0398467704537951
1013,0,0.665706129600203,0.334293870399797
1014,0,0.948702229442731,0.0512977705572691
1015,0,1,0
1016,1,0.00306062860390732,0.996939371396093
1017,0,1,0
1018,0,1,0
1019,1,0.0288712939676055,0.971128706032395
1020,0,0.988341672822981,0.0116583271770194
1021,0,1,0
1022,1,0.183579708675293,0.816420291324707
1023,0,0.999999499221328,5.00778672240532e-07
1024,0,1,0
1025,1,0.113461552032415,0.886538447967585
1026,0,1,0
1027,0,1,0
1028,0,0.997569335368595,0.00243066463140517
1029,1,0.389408998187859,0.610591001812141
1030,0,0.992511215075838,0.00748878492416187
1031,0,0.99856776335358,0.00143223664641987
1032,0,0.999827868051592,0.000172131948407646
1033,0,0.999986603271554,1.33967284460636e-05
1034,0,0.999912805482965,8.71945170350503e-05
1035,1,0.401703207205585,0.598296792794415
1036,1,0.147962884477,0.852037115523
1037,1,0.000926548289889251,0.999073451710111
1038,0,0.999899477977997,0.000100522022002936
1039,0,0.997078257072145,0.00292174292785483
1040,1,0.0327330291898223,0.967266970810178
1041,0,1,0
1042,0,0.99967590124771,0.000324098752289821
1043,0,0.994824818817352,0.00517518118264793
1044,0,1,0
1045,1,0.222299129258841,0.777700870741159
1046,0,1,0
1047,0,1,0
1048,0,0.802104503183519,0.197895496816481
1049,0,0.999197224242121,0.000802775757879416
1050,0,1,0
1051,0,0.999895410954255,0.000104589045744868
1052,0,0.999985262888877,1.47371111225517e-05
1053,0,1,0
1054,0,0.999998834935733,1.16506426652318e-06
1055,0,1,0
1056,0,0.999998781807012,1.21819298844301e-06
1057,0,0.999439946961879,0.000560053038121047
1058,0,1,0
1059,1,0.079662235343241,0.920337764656759
1060,1,0.361004827929521,0.638995172070479
1061,0,0.999998033321445,1.96667855454883e-06
1062,1,8.58835228045862e-07,0.999999141164772
1063,0,1,0
1064,0,0.663633672842538,0.336366327157462
1065,0,1,0
1066,0,1,0
1067,0,1,0
1068,0,0.999998753759791,1.24624020887506e-06
1069,0,0.986486663951851,0.0135133360481494
1070,0,0.999997955879189,2.04412081079679e-06
1071,0,1,0
1072,0,0.689733681259188,0.310266318740812
1073,0,0.997322822137725,0.00267717786227457
1074,0,0.999998815766458,1.1842335423679e-06
1075,0,1,0
1076,0,0.999255946362609,0.000744053637391495
1077,1,0.0147467150088809,0.985253284991119
1078,1,0.0786760977750051,0.921323902224995
1079,0,1,0
1080,1,0.0625179804175006,0.937482019582499
1081,0,0.999997752861002,2.24713899772603e-06
1082,0,1,0
1083,0,1,0
1084,0,0.989526254251098,0.0104737457489019
1085,0,1,0
1086,1,0.0261660396107239,0.973833960389276
1087,0,0.99652561555286,0.00347438444714048
1088,0,0.998111357025134,0.00188864297486616
1089,0,0.999419255656524,0.000580744343476196
1090,0,0.999782628536471,0.000217371463528938
1091,1,0.00467988436184175,0.995320115638158
1092,0,0.999999635575894,3.6442410574725e-07
1093,0,0.999236254832919,0.000763745167081218
1094,0,1,0
1095,0,0.998998952358219,0.00100104764178082
1096,0,1,0
1097,1,0.398308093021457,0.601691906978543
1098,0,1,0
1099,1,0.459961185018816,0.540038814981184
1100,0,1,0
1101,0,0.871198244994317,0.128801755005683
1102,1,0.000381508998850366,0.99961849100115
1103,0,0.999965827881663,3.41721183373861e-05
1104,0,1,0
1105,0,0.974346583433269,0.025653416566731
1106,0,0.999999657662331,3.42337669189742e-07
1107,0,0.999753741647668,0.00024625835233216
1108,0,0.999859144819802,0.000140855180198384
1109,0,1,0
1110,0,0.935748428401602,0.064251571598398
1111,0,0.972690774773702,0.0273092252262984
1112,0,1,0
1113,0,0.985013945476291,0.014986054523709
1114,1,0.0039815862460314,0.996018413753969
1115,0,0.99999669971845,3.30028154984169e-06
1116,0,1,0
1117,0,0.966765476565031,0.0332345234349693
1118,0,1,0
1120,0,1,0
1122,0,0.999841252426256,0.000158747573744407
1123,0,1,0
1124,0,0.970011770724631,0.029988229275369
1125,1,0.0175645561304594,0.982435443869541
1126,1,0.0507263512879703,0.94927364871203
1127,0,0.899766469905577,0.100233530094423
1128,0,0.995772525563049,0.00422747443695096
1129,0,0.995467872799775,0.00453212720022503
1130,0,0.994770893722065,0.00522910627793498
1131,0,0.999999679522359,3.20477640630556e-07
1132,0,0.999991280000558,8.71999944215294e-06
1133,0,1,0
1134,1,0.005862123293503,0.994137876706497
1135,0,0.999727556309184,0.000272443690816023
1136,1,0.0251622305362236,0.974837769463776
1137,0,0.999999597292407,4.02707592677018e-07
1138,1,0.0342902956794305,0.965709704320569
1139,0,0.999076624011568,0.000923375988431511
1140,0,1,0
1142,0,0.9999862584421,1.37415578997926e-05
1143,0,0.999999396949624,6.03050376180111e-07
1144,0,1,0
1145,0,0.999851106544139,0.000148893455860797
1146,0,0.999994322831967,5.67716803257616e-06
1147,0,0.999413741247412,0.000586258752587937
1148,0,1,0
1149,0,1,0
1150,0,1,0
1151,0,0.999999647472944,3.52527055832426e-07
1152,0,0.999974647715665,2.5352284334619e-05
1153,0,0.996165206254517,0.00383479374548253
1154,0,0.845972203501814,0.154027796498186
1155,0,1,0
1156,0,1,0
1157,0,0.999965265469908,3.47345300919175e-05
1158,0,1,0
1159,0,0.995681993924518,0.00431800607548231
1160,0,0.99999411888023,5.88111976950468e-06
1161,0,0.998840950258355,0.00115904974164465
1162,1,0.364848612306169,0.635151387693831
1163,1,0.00523327610732616,0.994766723892674
1164,0,0.999917188277863,8.2811722136779e-05
1165,0,0.999990429353121,9.57064687886452e-06
1166,0,0.999999473590317,5.26409682784127e-07
1167,0,0.999817480505563,0.000182519494437265
1168,0,0.999990249718803,9.75028119670451e-06
1169,0,0.959406343067424,0.040593656932576
1170,0,1,0
1171,1,0.050966380685544,0.949033619314456
1172,0,0.999977477415469,2.25225845313197e-05
1173,0,0.976655274811953,0.0233447251880475
1174,0,0.998732278058601,0.0012677219413986
1175,0,1,0
1176,0,1,0
1177,0,0.999986176339076,1.38236609241635e-05
1178,1,0.0383663953685464,0.961633604631454
1179,1,0.0144194428746426,0.985580557125357
1180,0,0.632338176859249,0.367661823140751
1181,0,0.999984566635459,1.54333645406407e-05
1182,0,0.762007359115165,0.237992640884835
1183,0,1,0
1184,0,0.999998502421002,1.49757899778148e-06
1185,1,0.0310314764356556,0.968968523564344
1186,0,0.997968093348733,0.00203190665126652
1187,0,1,0
1188,0,1,0
1189,0,1,0
1190,0,1,0
1191,0,0.999988399640387,1.1600359612972e-05
1192,0,1,0
1193,1,0.0144588419768553,0.985541158023145
1194,0,1,0
1195,0,1,0
1196,0,1,0
1197,0,1,0
1198,1,0.0770150487269544,0.922984951273046
1199,0,0.99999959093475,4.09065250454185e-07
1200,0,1,0
1201,0,0.999998575138517,1.42486148268359e-06
1202,0,0.960728759171841,0.0392712408281591
1203,0,0.998551582506808,0.00144841749319167
1204,0,0.999773204368517,0.000226795631483219
1205,0,0.999999154233155,8.45766845207482e-07
1206,0,0.998757411282532,0.00124258871746768
1207,0,0.999269823872573,0.000730176127426615
1208,0,0.999989136768921,1.08632310789406e-05
1209,0,1,0
1210,0,1,0
1211,0,0.547458980023922,0.452541019976078
1212,0,1,0
1213,0,1,0
1214,0,0.999988494466884,1.15055331156668e-05
1215,0,1,0
1216,1,0.0189919117392217,0.981008088260778
1217,1,0.275147684954289,0.724852315045711
1218,1,0.000189817997564123,0.999810182002436
1220,0,0.999400928208853,0.000599071791147489
1221,1,0.0305394411869195,0.96946055881308
1222,0,0.987732369220231,0.0122676307797689
1223,0,1,0
1225,0,1,0
1226,0,0.674570092125613,0.325429907874386
1227,0,0.999990607749029,9.39225097118842e-06
1228,0,1,0
1229,1,0.381400551063815,0.618599448936185
1230,0,0.999997147265871,2.85273412897543e-06
1231,0,0.969843054008638,0.0301569459913615
1232,0,0.785856894358666,0.214143105641334
1233,0,0.999995090956974,4.90904302568349e-06
1234,0,0.999994941268107,5.0587318929821e-06
1235,0,1,0
1236,0,0.999998717964821,1.28203517939193e-06
1237,1,0.00101172242743497,0.998988277572565
1238,1,0.0923230872180284,0.907676912781972
1239,0,0.999997967699758,2.03230024186234e-06
1240,0,0.999994079328115,5.92067188481046e-06
1241,0,1,0
1242,0,0.999345846647869,0.000654153352130779
1243,1,0.0163390606965635,0.983660939303436
1244,0,0.998410081461256,0.00158991853874377
1245,0,0.998782976643961,0.00121702335603941
1246,0,0.999999160004371,8.39995628628961e-07
1247,0,1,0
1248,0,0.725050954029883,0.274949045970117
1249,0,0.981574619993513,0.018425380006487
1250,0,1,0
1251,1,0.30434257018227,0.69565742981773
1252,0,1,0
1253,0,0.999984517164612,1.54828353879244e-05
1254,1,0.00127443764372381,0.998725562356276
1255,0,0.999999560114998,4.39885002137288e-07
1256,0,0.997079457374403,0.00292054262559734
1257,0,0.997741835801659,0.00225816419834068
1258,0,1,0
1259,0,0.993503881698988,0.0064961183010125
1260,1,0.32908694691686,0.67091305308314
1261,0,0.908406390411022,0.0915936095889782
1262,0,1,0
1263,0,0.994465734873686,0.00553426512631401
1264,0,0.973106053395759,0.026893946604241
1265,0,1,0
1266,1,0.000930061373493718,0.999069938626506
1267,0,0.641307911592163,0.358692088407837
1268,0,1,0
1269,1,0.0460046837434126,0.953995316256587
1270,0,1,0
1271,0,0.999999598204252,4.0179574848059e-07
1272,0,0.999980809891526,1.91901084739734e-05
1273,1,0.197497036545109,0.802502963454891
1274,0,1,0
1275,1,0.0742588452082137,0.925741154791786
1276,0,0.999957940698853,4.20593011471314e-05
1277,0,1,0
1278,0,0.999987980818426,1.20191815740688e-05
1279,0,1,0
1280,0,0.982507323376694,0.0174926766233057
1281,0,1,0
1282,0,1,0
1283,0,0.925284574744839,0.0747154252551612
1284,0,1,0
1285,0,0.984384996713526,0.0156150032864744
1286,0,1,0
1287,0,0.707825932849919,0.292174067150081
1288,0,1,0
1289,0,0.678261160627235,0.321738839372765
1290,0,0.676773921780839,0.323226078219161
1291,0,1,0
1292,0,1,0
1293,1,8.36793205108988e-05,0.999916320679489
1294,0,1,0
1295,0,0.999999100700014,8.99299986496446e-07
1296,0,1,0
1297,0,0.999995818890141,4.18110985930228e-06
1298,0,0.999983243261072,1.67567389277128e-05
1299,0,0.99999759821771,2.40178229038329e-06
1300,0,0.999566005421733,0.000433994578266562
1301,0,1,0
1302,0,0.993778649662727,0.00622135033727268
1303,0,0.999997173290139,2.82670986107394e-06
1304,0,0.999999242695281,7.5730471878723e-07
1305,0,1,0
1306,0,1,0
1307,0,1,0
1308,1,0.0182273650336273,0.981772634966373
1309,0,0.679936411133076,0.320063588866924
1310,0,0.999985012385624,1.4987614376339e-05
1311,0,1,0
1312,0,0.999996803731494,3.19626850641331e-06
1313,0,1,0
1314,0,0.99998489490778,1.51050922199485e-05
1315,0,0.995402095763506,0.00459790423649381
1316,0,0.999994259519459,5.74048054076198e-06
1317,0,0.999990119555773,9.88044422696468e-06
1318,0,0.994117448310015,0.00588255168998452
1319,1,0.28714793022217,0.71285206977783
1320,0,0.997715047326876,0.00228495267312385
1321,0,0.998811121764364,0.00118887823563574
1322,0,0.999998399341164,1.6006588355379e-06
1323,0,0.999999487536656,5.12463343787524e-07
1325,0,0.999504790232963,0.000495209767037157
1326,0,1,0
1327,0,1,0
1329,0,0.998660037101447,0.00133996289855275
1330,0,0.997424259126969,0.00257574087303145
1331,0,1,0
1332,0,1,0
1333,0,1,0
1334,0,1,0
1335,0,0.999999480376691,5.19623308805869e-07
1336,0,1,0
1337,1,0.259999579422233,0.740000420577767
1338,0,0.988825970926903,0.0111740290730965
1339,0,1,0
1340,0,0.999997836786398,2.16321360237677e-06
1341,0,1,0
1342,0,1,0
1343,1,0.0200442684457829,0.979955731554217
1344,0,0.999611298406606,0.000388701593393814
1345,0,0.999556618092188,0.000443381907812176
1346,0,0.980808154273385,0.0191918457266147
1347,0,1,0
1348,1,1.39237312674068e-05,0.999986076268733
1349,0,0.999998665218322,1.33478167836249e-06
1350,1,0.00323448772973733,0.996765512270263
1351,0,1,0
1353,0,0.999503314969616,0.000496685030384469
1354,0,0.999640153711418,0.000359846288581581
1355,0,0.999464281207323,0.000535718792676909
1356,0,0.999787746173234,0.000212253826766277
1357,0,1,0
1358,0,0.989256367377243,0.0107436326227574
1359,0,1,0
1360,0,1,0
1361,0,0.988155903071396,0.0118440969286036
1362,0,1,0
1363,0,1,0
1364,0,1,0
1365,0,0.999998842283686,1.15771631365708e-06
1366,0,0.970376628631151,0.0296233713688493
1367,0,1,0
1368,1,0.0213135770025031,0.978686422997497
1369,0,1,0
1370,1,3.03566886628026e-06,0.999996964331134
1371,0,1,0
1372,0,0.999981305171183,1.86948288168072e-05
1373,0,0.870719997985916,0.129280002014084
1374,0,0.999996883130697,3.11686930300071e-06
1375,1,0.0163410090467563,0.983658990953244
1376,0,0.99612065348241,0.00387934651758954
1377,0,0.999020564507467,0.000979435492533365
1378,0,0.991448303940318,0.0085516960596824
1379,0,0.993245961559354,0.00675403844064596
1380,0,0.999938969728848,6.10302711519213e-05
1381,0,0.999939502878941,6.04971210592222e-05
1382,0,1,0
1383,0,0.669487833959673,0.330512166040327
1385,0,0.999995906014512,4.09398548799369e-06
1386,0,1,0
1387,0,1,0
1388,0,0.999990166608233,9.83339176668138e-06
1389,0,0.999992820023605,7.1799763954128e-06
1390,0,0.999427381860759,0.000572618139240549
1391,0,0.999900187565988,9.98124340124804e-05
1392,0,1,0
1393,0,1,0
1394,0,0.999730200184554,0.000269799815445555
1395,0,0.842006756310941,0.157993243689059
1396,0,1,0
1397,0,0.999998741832444,1.25816755575418e-06
1398,0,0.999956030376407,4.39696235925225e-05
1399,1,0.00767230347204018,0.99232769652796
1400,0,0.9972666431011,0.00273335689889957
1401,0,0.99368902143331,0.00631097856668981
1402,1,0.000717992468378004,0.999282007531622
1403,0,0.999872038057523,0.000127961942476999
1404,1,0.0375140956085575,0.962485904391443
1405,0,1,0
1406,0,0.955840452648024,0.0441595473519762
1407,0,0.999909643397429,9.03566025710929e-05
1408,0,1,0
1409,0,0.999388972624071,0.000611027375929333
1410,0,0.999951684284827,4.83157151732186e-05
1411,0,1,0
1412,0,0.995676235110869,0.00432376488913133
1413,0,0.999994846667114,5.15333288578154e-06
1414,0,0.998243997481865,0.00175600251813541
1415,1,8.90848835810587e-07,0.999999109151164
1416,0,0.910972681178515,0.0890273188214849
1417,0,1,0
1418,0,1,0
1419,0,0.999924847921871,7.51520781289482e-05
1420,0,0.999999014034865,9.85965134753752e-07
1421,0,1,0
1422,0,0.994573990703391,0.00542600929660849
1423,0,0.979404435416426,0.0205955645835741
1424,0,0.744642650865598,0.255357349134402
1425,0,0.999994926196194,5.07380380574724e-06
1426,1,0.221121637448676,0.778878362551324
1427,0,0.990566365800854,0.00943363419914627
1428,0,0.959052772993719,0.0409472270062806
1429,0,1,0
1430,0,1,0
1431,0,0.99996894551954,3.10544804599904e-05
1432,0,1,0
1433,0,0.998889961725109,0.00111003827489054
1434,1,0.0582613496814915,0.941738650318508
1435,0,0.999055125976012,0.000944874023988343
1436,0,1,0
1437,0,1,0
1438,0,1,0
1439,0,0.999809197960313,0.000190802039686894
1440,0,0.99998504368462,1.49563153803204e-05
1441,0,0.981919653739364,0.0180803462606363
1442,0,1,0
1443,0,0.999362692627139,0.000637307372860618
1444,0,0.995206016932663,0.00479398306733701
1445,0,0.999983032450683,1.69675493170631e-05
1446,0,0.999973997828802,2.60021711976217e-05
1447,0,1,0
1448,0,0.696233894299146,0.303766105700854
1449,0,1,0
1450,0,0.999999377920837,6.22079163350162e-07
1451,0,0.997094305679701,0.0029056943202985
1452,1,0.027523416714979,0.972476583285021
1453,0,0.926378882960155,0.0736211170398451
1454,0,0.59220915244886,0.40779084755114
1455,0,0.985755710534169,0.0142442894658309
1456,0,0.999998217131617,1.78286838308914e-06
1457,0,0.995062242674641,0.00493775732535897
1458,0,0.998825036724321,0.00117496327567884
1459,0,0.994598255653636,0.00540174434636381
1460,0,1,0
1461,0,1,0
1462,1,0.0863591240810895,0.913640875918911
1463,0,0.999962183708422,3.78162915779224e-05
1464,0,1,0
1465,0,1,0
1466,0,1,0
1467,1,0.0463790018776591,0.953620998122341
1468,1,0.0189479706477349,0.981052029352265
1469,1,0.0187611721101255,0.981238827889874
1470,1,0.00407893936095383,0.995921060639046
1471,1,0.437258798738498,0.562741201261502
1472,0,0.999986311187409,1.36888125911821e-05
1473,0,0.998409335544443,0.00159066445555662
1474,0,0.995645854641266,0.00435414535873406
1475,0,1,0
1476,1,0.442196464165706,0.557803535834294
1477,1,1.02898704331666e-05,0.999989710129567
1478,0,1,0
1479,0,1,0
1480,0,1,0
1481,0,0.999826977526206,0.000173022473793855
1482,0,0.999991784897558,8.21510244247012e-06
1483,1,0.098437971780321,0.901562028219679
1484,1,0.0188182083450964,0.981181791654904
1485,0,1,0
1486,0,0.999994954881371,5.04511862909755e-06
1487,0,1,0
1488,1,0.0275537921411483,0.972446207858852
1489,0,0.954019579442768,0.0459804205572317
1490,0,1,0
1491,0,1,0
1492,0,0.9999989194865,1.08051349964661e-06
1493,0,0.999999091382846,9.08617154429922e-07
1494,0,0.999996456030067,3.54396993294601e-06
1495,0,0.63171691788478,0.36828308211522
1496,0,0.886629535444807,0.113370464555193
1497,1,0.309153204166988,0.690846795833012
1498,0,1,0
1499,0,0.99989699117852,0.000103008821480086
1500,0,0.770430909502226,0.229569090497774
1501,0,1,0
1502,0,0.999997722841042,2.27715895802984e-06
1503,0,0.526639611405229,0.473360388594771
1504,0,0.977299033072954,0.0227009669270463
1505,0,0.979968790834029,0.0200312091659709
1506,0,0.961348949274851,0.0386510507251491
1507,1,0.321623971080347,0.678376028919653
1508,0,0.999998152469043,1.84753095700472e-06
1509,0,0.999587842824868,0.000412157175132188
1510,0,1,0
1511,0,0.998961287249575,0.00103871275042548
1512,0,0.726157954644899,0.273842045355101
1513,1,0.24462596964297,0.75537403035703
1514,0,0.968905602416026,0.0310943975839736
1515,0,0.999998676649848,1.32335015233475e-06
1516,0,0.999379246916641,0.000620753083358554
1517,0,0.999958138293157,4.18617068432565e-05
1518,0,0.999307541590233,0.000692458409766955
1519,0,0.599153683887736,0.400846316112264
1520,0,1,0
1521,0,1,0
1522,0,1,0
1523,0,1,0
1524,0,0.923189386050861,0.0768106139491388
1525,0,0.999197530749615,0.000802469250384991
1526,0,0.999848817402203,0.000151182597796834
1527,0,0.999999189654138,8.10345862317509e-07
1528,0,0.999724637356247,0.000275362643752791
1529,1,1.54066195766633e-05,0.999984593380423
1530,0,0.999961522633524,3.84773664756588e-05
1531,0,0.999180941156392,0.00081905884360827
1532,0,1,0
1533,0,0.999428776626479,0.000571223373521146
1534,0,0.99932792086946,0.00067207913054048
1535,0,0.998301612322235,0.00169838767776473
1536,0,0.780492055455296,0.219507944544704
1537,0,1,0
1538,1,0.00931586516441152,0.990684134835588
1539,0,0.658948675139201,0.341051324860799
1540,0,0.999997892984572,2.10701542785426e-06
1541,0,0.999990004229416,9.99577058405107e-06
1542,0,0.999998970911128,1.02908887226676e-06
1543,0,0.995602155405323,0.00439784459467654
1544,0,0.991023993938526,0.00897600606147365
1545,0,1,0
1546,0,0.999998893563577,1.10643642288814e-06
1547,0,1,0
1548,0,1,0
1549,0,0.999986878070803,1.31219291968703e-05
1550,1,0.320477440528158,0.679522559471842
1551,0,1,0
1552,0,1,0
1553,0,0.999253552652043,0.000746447347957477
1554,1,0.448653799281073,0.551346200718927
1555,0,0.850578520113553,0.149421479886447
1556,0,1,0
1557,0,0.999801664855641,0.000198335144358906
1558,0,0.999955104273664,4.48957263359501e-05
1559,0,0.999999482779584,5.1722041574746e-07
1560,0,0.99984224675481,0.00015775324518978
1561,1,0.0630814647154366,0.936918535284563
1562,0,0.999990156097319,9.84390268111334e-06
1563,0,0.999993290320777,6.70967922282411e-06
1564,0,0.988190993334978,0.0118090066650219
1566,1,0.191662378808577,0.808337621191423
1567,0,1,0
1568,1,0.03288968885175,0.96711031114825
1569,0,0.956392264294684,0.0436077357053164
1570,0,1,0
1571,0,0.985694028717258,0.0143059712827418
1572,0,1,0
1573,0,0.99799539128977,0.00200460871023011
1574,1,0.272917374468602,0.727082625531398
1575,0,0.9999222664016,7.77335984003878e-05
1576,0,0.999831116603499,0.000168883396500678
1577,0,0.997709193915698,0.00229080608430156
1578,0,0.999984318686611,1.56813133889557e-05
1579,0,0.998968426459697,0.00103157354030334
1580,0,0.994074964224812,0.00592503577518798
1581,0,0.999985046932645,1.49530673548956e-05
1582,0,0.926764544190663,0.0732354558093365
1583,0,1,0
1584,1,0.0260475969042282,0.973952403095772
1585,0,1,0
1586,0,1,0
1587,0,0.999997219029564,2.78097043654116e-06
1588,0,0.999999631344969,3.68655030698233e-07
1589,0,0.999437847132893,0.000562152867107102
1590,0,1,0
1591,0,1,0
1592,0,0.999996336879383,3.66312061705753e-06
1593,0,1,0
1594,0,1,0
1596,0,1,0
1597,0,0.999605296165537,0.000394703834463127
1598,0,1,0
1599,0,0.99111842611332,0.00888157388668022
1600,1,0.0498940497047906,0.950105950295209
1601,0,0.71414972004427,0.28585027995573
1602,0,0.999999639685799,3.60314201159716e-07
1603,0,0.99899532755097,0.00100467244903003
1604,0,0.999992597351669,7.40264833134944e-06
1605,0,1,0
1606,0,0.999992492527012,7.50747298847748e-06
1607,0,0.617079859049273,0.382920140950727
1608,0,0.991188036896314,0.00881196310368576
1609,0,1,0
1610,0,0.998765797922142,0.00123420207785844
1611,0,1,0
1612,0,0.70917780472123,0.29082219527877
1613,0,0.99999940056784,5.99432160384069e-07
1614,0,0.999999106760797,8.93239202617992e-07
1615,0,0.999999238139694,7.61860305984295e-07
1616,0,0.982045533958323,0.0179544660416769
1617,0,0.983113976781772,0.0168860232182278
1618,1,0.00220971586366825,0.997790284136332
1619,0,0.99828418176179,0.00171581823820951
1620,0,1,0
1621,1,0.0154666145518593,0.984533385448141
1622,0,0.999917011242683,8.29887573168941e-05
1623,0,1,0
1624,0,0.991985417787557,0.00801458221244339
1625,0,0.934300116192418,0.0656998838075818
1626,0,0.999982287282164,1.77127178361268e-05
1627,0,0.999184854941273,0.000815145058726864
1628,0,0.999921095503687,7.89044963131925e-05
1629,0,1,0
1630,0,0.996133089116849,0.00386691088315078
1631,0,0.999998296667008,1.70333299243806e-06
1632,0,0.999982747342635,1.72526573653352e-05
1633,0,1,0
1634,0,0.999742375678108,0.000257624321892045
1635,0,1,0
1636,0,0.997204412652225,0.00279558734777487
1638,0,0.970396728756194,0.0296032712438057
1639,0,0.999987823143548,1.21768564522753e-05
1640,0,0.927122469812684,0.0728775301873157
1641,0,0.999998134871246,1.86512875439197e-06
1642,0,0.999510189538167,0.000489810461832662
1643,0,0.999238019907243,0.000761980092756711
1644,0,0.988263496406923,0.0117365035930766
1645,0,0.999973074030407,2.6925969592651e-05
1646,0,0.727687919872577,0.272312080127423
1647,1,0.162123970906974,0.837876029093026
1648,0,0.999999496880599,5.03119401470328e-07
1649,0,0.944534199469073,0.0554658005309273
1650,0,1,0
1651,0,1,0
1652,0,0.999925603082787,7.43969172129048e-05
1653,0,0.999998624000614,1.37599938567535e-06
1654,0,1,0
1655,0,0.994148456584849,0.00585154341515101
1656,1,0.0147819876696591,0.985218012330341
1657,0,0.999915597164299,8.44028357009794e-05
1658,0,0.983470193896486,0.0165298061035142
1659,0,0.997217901226799,0.00278209877320076
1660,0,0.997921965083523,0.00207803491647664
1661,0,0.998386209634198,0.00161379036580228
1662,0,0.999995914428529,4.08557147115061e-06
1664,0,1,0
1665,0,1,0
1666,0,0.998277572575912,0.0017224274240877
1667,1,0.0181211759700375,0.981878824029963
1668,1,0.0226767082171029,0.977323291782897
1669,0,0.996167295235153,0.00383270476484649
1670,0,0.569017938503052,0.430982061496948
1671,1,0.00209020098624446,0.997909799013756
1672,0,0.981630725955636,0.0183692740443636
1673,0,0.995569319162123,0.00443068083787677
1674,0,0.798157593856613,0.201842406143387
1675,1,0.000580040147546312,0.999419959852454
1676,0,0.992232308719891,0.00776769128010925
1677,1,0.300634693620944,0.699365306379056
1678,0,1,0
1679,0,1,0
1682,0,0.99999859255039,1.40744961042804e-06
1683,0,0.717274631344531,0.282725368655469
1684,0,0.999991797680591,8.20231940882817e-06
1685,0,1,0
1686,0,1,0
1687,0,0.997849966407978,0.00215003359202173
1688,0,1,0
1689,0,1,0
1690,0,1,0
1691,0,0.999995584189539,4.41581046105848e-06
1692,1,0.00428863209074493,0.995711367909255
1693,0,0.999992907859495,7.09214050528795e-06
1694,0,1,0
1695,0,0.99999766820304,2.33179695990923e-06
1696,0,0.999978638766579,2.13612334209224e-05
1697,0,0.920737773275771,0.0792622267242294
1698,0,0.999993164114266,6.83588573356335e-06
1700,0,0.999969094885929,3.0905114070799e-05
1701,0,0.999830302342658,0.000169697657342165
1702,1,0.136395091995456,0.863604908004544
1703,0,0.971533038900612,0.0284669610993881
1704,0,0.999202747829804,0.000797252170195972
1705,0,0.999996706377549,3.29362245094157e-06
1706,1,0.00879918315829631,0.991200816841704
1707,0,0.999994223615623,5.77638437726448e-06
1708,0,1,0
1709,0,0.999740468443289,0.000259531556710977
1710,0,1,0
1711,0,1,0
1712,0,0.99999935811221,6.41887790169684e-07
1713,0,0.999988099079981,1.1900920019301e-05
1714,0,1,0
1715,0,1,0
1716,0,0.998884507707719,0.00111549229228067
1717,1,0.032096448547454,0.967903551452546
1718,0,1,0
1719,0,0.975857170144711,0.0241428298552889
1720,0,0.958490429930778,0.0415095700692219
1721,0,0.999836670486119,0.000163329513880676
1722,0,0.905815575245637,0.0941844247543632
1723,0,0.999402584178807,0.000597415821193231
1724,0,0.999999599396734,4.00603266363213e-07
1725,0,1,0
1726,1,0.0359870245795086,0.964012975420491
1727,0,0.988938267426498,0.0110617325735024
1728,1,0.000128016294247191,0.999871983705753
1729,0,0.999867466755889,0.000132533244111404
1731,0,0.997953151960268,0.00204684803973179
1732,0,0.999995053499077,4.94650092326689e-06
1733,1,0.0717095267868813,0.928290473213119
1734,0,0.742659823847768,0.257340176152232
1735,0,0.998455505860635,0.00154449413936534
1736,0,0.979058614709258,0.0209413852907421
1737,0,1,0
1738,0,0.864368386133077,0.135631613866923
1739,0,0.999996077312823,3.92268717721147e-06
1740,0,1,0
1741,0,0.938679976173183,0.0613200238268166
1742,0,1,0
1743,0,1,0
1744,0,0.999876846522658,0.000123153477342322
1745,0,0.999995312557098,4.68744290214932e-06
1746,1,0.0096104449091271,0.990389555090873
1747,1,0.182138511124239,0.817861488875761
1749,1,0,1
1750,0,1,0
1751,0,1,0
1752,0,1,0
1753,0,0.999957018542012,4.29814579877297e-05
1754,1,0.00743995029791267,0.992560049702087
1755,0,1,0
1756,0,1,0
1757,0,1,0
1758,0,0.999995632539744,4.3674602556495e-06
1759,0,1,0
1760,0,1,0
1761,1,0.368166185637625,0.631833814362375
1762,0,1,0
1763,0,1,0
1764,0,0.999982288842546,1.77111574535021e-05
1765,0,0.999989619852873,1.0380147126514e-05
1766,0,1,0
1767,0,0.994353916562847,0.00564608343715275
1768,0,0.999533141313786,0.000466858686214216
1769,0,0.999999146435202,8.53564798007096e-07
1770,1,0.0188716417246875,0.981128358275313
1771,0,0.967988980318454,0.0320110196815464
1772,0,0.934235281589625,0.0657647184103754
1773,1,0.478159763456912,0.521840236543088
1774,0,0.999999169248473,8.30751526911326e-07
1775,0,1,0
1777,1,0.13506611114313,0.86493388885687
1778,1,0.000231117852785179,0.999768882147215
1779,0,1,0
1780,0,0.999992895522815,7.10447718465346e-06
1781,1,0.00133965836738603,0.998660341632614
1782,0,1,0
1783,0,0.998379500042911,0.00162049995708867
1784,0,0.799156651372306,0.200843348627694
1785,0,0.999932115217132,6.78847828679404e-05
1786,0,1,0
1787,0,0.991312411098428,0.00868758890157219
1788,1,0.0912905992936353,0.908709400706365
1789,1,0.480834826965574,0.519165173034426
1790,0,0.939535889793352,0.0604641102066481
1791,0,0.999944204317514,5.57956824865091e-05
1792,0,0.99994422443369,5.57755663098083e-05
1793,0,0.999999544877028,4.55122972323948e-07
1795,0,1,0
1796,0,0.996970572089844,0.00302942791015629
1797,0,1,0
1798,0,0.858074065696917,0.141925934303083
1799,1,0.00998750208168531,0.990012497918315
1800,0,0.999998343167385,1.65683261510491e-06
1801,0,0.999602531278597,0.000397468721402556
1802,0,0.999998742309577,1.25769042309967e-06
1803,1,0.116702494572253,0.883297505427747
1804,1,0.0390418344097571,0.960958165590243
1805,0,0.991637617180101,0.00836238281989896
1806,0,0.510153534757202,0.489846465242798
1807,1,0.0314692606639356,0.968530739336064
1808,0,1,0
1809,0,0.99969789360167,0.00030210639832997
1810,0,0.998768086705536,0.00123191329446417
1811,0,1,0
1812,1,0.351865964717937,0.648134035282063
1813,0,0.999400378666209,0.000599621333791042
1814,0,1,0
1815,0,1,0
1816,0,0.996000423165995,0.00399957683400526
1818,0,0.983019537792789,0.0169804622072109
1819,0,0.999992101652358,7.89834764230797e-06
1820,0,0.970626057476747,0.0293739425232529
1821,0,0.96291660225241,0.0370833977475902
1822,0,1,0
1823,0,0.999999540818855,4.59181144856891e-07
1824,0,0.752153155691316,0.247846844308684
1825,0,0.999999353060709,6.46939290934066e-07
1826,0,0.998895797384,0.00110420261600002
1827,1,0.0149153011466441,0.985084698853356
1828,0,0.999998657060964,1.34293903612138e-06
1829,0,0.99999660020751,3.39979249011215e-06
1830,0,0.998224193380938,0.00177580661906218
1831,0,0.99883885199186,0.00116114800814031
1832,0,1,0
1833,0,0.740094336993482,0.259905663006518
1834,1,0.060667103485184,0.939332896514816
1835,0,0.883079400935284,0.116920599064716
1836,0,0.56132741533985,0.43867258466015
1837,0,0.849211514581492,0.150788485418508
1838,0,0.96080918433749,0.0391908156625101
1839,0,1,0
1840,0,0.999999034380128,9.6561987213012e-07
1841,0,1,0
1842,0,1,0
1843,0,0.999987988050196,1.20119498036351e-05
1844,0,0.999975413705765,2.45862942348795e-05
1845,0,1,0
1846,0,0.999999665916132,3.34083867948135e-07
1847,0,0.9993729399268,0.000627060073199829
1849,0,0.999706446360112,0.000293553639888124
1850,1,0.0027456770497527,0.997254322950247
1851,0,0.669738039238608,0.330261960761392
1852,0,0.988445479802985,0.0115545201970153
1853,0,0.998119421341142,0.00188057865885774
1854,0,1,0
1855,0,0.999998152246417,1.84775358330125e-06
1856,1,0.464786716763291,0.535213283236709
1857,0,0.999967488958092,3.25110419078055e-05
1858,1,0.225339357306656,0.774660642693344
1859,0,1,0
1860,1,0.419624648544405,0.580375351455595
1861,0,1,0
1862,0,0.570815779988967,0.429184220011033
1863,0,0.997873273278822,0.00212672672117825
1864,0,1,0
1865,0,0.999985001524646,1.4998475354044e-05
1866,0,0.999998941218593,1.05878140745941e-06
1867,0,0.999238041921094,0.00076195807890614
1868,0,0.999913188693027,8.68113069726304e-05
1869,0,0.999979831327693,2.01686723065423e-05
1870,0,1,0
1871,0,0.538081177781207,0.461918822218793
1872,0,0.990725722013336,0.00927427798666435
1873,0,1,0
1874,1,0.0286942360482466,0.971305763951753
1876,0,1,0
1877,0,0.999992936114905,7.06388509509019e-06
1878,1,0.193963301663407,0.806036698336593
1879,0,0.987904031283963,0.0120959687160367
1880,0,1,0
1881,0,0.999587623039803,0.000412376960196893
1882,0,0.997781940164135,0.00221805983586511
1883,0,1,0
1884,1,0.00911658287308004,0.99088341712692
1885,0,0.999999599807442,4.00192557844096e-07
1886,0,0.999766577989833,0.000233422010167377
1887,0,1,0
1888,0,0.999290795880509,0.00070920411949145
1889,0,1,0
1890,0,0.999872252729818,0.000127747270182179
1891,0,0.999906197923293,9.38020767065401e-05
1892,1,7.15255615186816e-05,0.999928474438481
1893,0,1,0
1894,0,0.997920344118644,0.00207965588135617
1895,0,0.990488400099372,0.00951159990062762
1896,0,0.998574103463854,0.00142589653614647
1897,1,0.418544904574258,0.581455095425742
1898,0,0.999890008297709,0.000109991702291309
1899,0,0.999996137825803,3.86217419709935e-06
