,Predicted_censored,CensoredProbability,NonCensoredProbability
1,0,0.778976684827603,0.221023315172398
2,0,0.842430398129447,0.157569601870553
3,1,0.314203882898897,0.685796117101103
4,0,0.816439031890002,0.183560968109998
5,1,0.397913932703949,0.602086067296051
6,1,0.121324132412386,0.878675867587614
7,0,0.940960989294903,0.0590390107050971
8,0,0.920163590656804,0.0798364093431961
9,1,0.0797837641135337,0.920216235886466
10,0,0.780454295094098,0.219545704905902
11,1,0.294097400057864,0.705902599942136
12,1,0.197441705094455,0.802558294905545
13,0,0.840179267145077,0.159820732854923
14,0,0.816844405136231,0.183155594863769
15,0,0.852883717787663,0.147116282212337
16,0,0.662986820467968,0.337013179532032
17,0,0.518082787330894,0.481917212669106
18,0,0.833765497470047,0.166234502529953
19,0,0.922346164075056,0.0776538359249444
20,0,0.63470362068281,0.36529637931719
21,0,0.720688665790272,0.279311334209728
22,0,0.773287919011786,0.226712080988214
23,0,0.802575116900612,0.197424883099388
24,0,0.817775987754044,0.182224012245956
25,1,0.0873094535478103,0.91269054645219
26,0,0.717558554468908,0.282441445531092
27,1,0.438181945625425,0.561818054374575
28,0,0.588098050973888,0.411901949026112
29,0,0.649885851521359,0.350114148478641
30,0,0.694950256621485,0.305049743378515
31,0,0.727063861636279,0.272936138363721
32,0,0.711998830790788,0.288001169209212
33,0,0.998747260036968,0.00125273996303158
34,0,0.711658764628949,0.288341235371051
35,0,0.560261263104918,0.439738736895082
36,0,0.654660216970341,0.345339783029659
37,1,0.273855487300516,0.726144512699484
38,0,0.639608968500699,0.360391031499301
39,0,0.516370453956687,0.483629546043313
40,0,0.704439313534119,0.295560686465881
41,1,0.485908906815296,0.514091093184704
42,1,0.224976746964346,0.775023253035654
43,1,0.315245674430363,0.684754325569637
44,0,0.565731869133155,0.434268130866845
45,1,0.488239567329946,0.511760432670054
46,0,0.951353660441918,0.0486463395580818
47,0,0.876233642569171,0.123766357430829
48,1,0.253758574809359,0.746241425190641
49,0,0.849154060979293,0.150845939020707
50,1,0.412131972202588,0.587868027797412
51,0,0.718407847663662,0.281592152336338
52,0,0.684424448861568,0.315575551138432
53,0,0.672135385059509,0.327864614940491
54,1,0.235128002774012,0.764871997225988
55,1,0.210214557919684,0.789785442080316
56,1,0.323466408015128,0.676533591984872
57,0,0.868641095278946,0.131358904721054
58,0,0.920009263749246,0.0799907362507541
59,0,0.759959881714185,0.240040118285815
60,0,0.768748450074264,0.231251549925736
61,1,0.191796268258249,0.808203731741751
62,0,0.698674358290673,0.301325641709327
63,1,0.218905437468728,0.781094562531272
64,0,0.716175356742858,0.283824643257142
65,0,0.756436135956344,0.243563864043656
66,1,0.243714636807702,0.756285363192298
67,1,0.255697456425009,0.744302543574991
68,1,0.184587891170165,0.815412108829835
69,1,0.144581706886707,0.855418293113293
70,1,0.329699402392468,0.670300597607532
71,1,0.495678836009137,0.504321163990863
72,0,0.742156308667994,0.257843691332006
73,1,0.466444478092248,0.533555521907752
74,1,0.1445810043941,0.8554189956059
75,1,0.146961868071193,0.853038131928807
76,1,0.328453935027096,0.671546064972904
77,0,0.668873385060248,0.331126614939752
78,1,0.291832656011641,0.708167343988359
79,1,0.33848612511367,0.66151387488633
80,0,0.609916208094106,0.390083791905894
81,1,0.176869262944841,0.823130737055159
82,0,0.67939050159593,0.32060949840407
83,1,0.295974338502015,0.704025661497985
84,0,0.762313932393733,0.237686067606267
85,0,0.60304138748545,0.39695861251455
86,0,0.530723080084768,0.469276919915232
87,1,0.439529907139396,0.560470092860604
88,1,0.180485248853144,0.819514751146856
89,1,0.0996350610743625,0.900364938925638
90,1,0.398354544603208,0.601645455396792
91,1,0.186233477714813,0.813766522285187
92,0,0.877980308714846,0.122019691285154
93,0,0.979048521410263,0.0209514785897374
94,0,0.906408974864672,0.0935910251353284
95,0,0.506056642611107,0.493943357388893
96,0,0.92402895734444,0.0759710426555595
97,1,0.146854756403899,0.853145243596101
98,1,0.358530150440922,0.641469849559078
99,0,0.658194975890651,0.341805024109349
100,0,0.906656118114022,0.0933438818859783
101,1,0.284629021108062,0.715370978891938
102,0,0.850242105539972,0.149757894460028
103,0,0.713126287964757,0.286873712035243
104,0,0.642017448553379,0.357982551446621
105,1,0.258469627713987,0.741530372286013
106,0,0.574268482180834,0.425731517819166
107,0,0.875407033524614,0.124592966475386
108,1,0.400432846168956,0.599567153831044
109,0,0.725557084942058,0.274442915057942
110,0,0.770211093995636,0.229788906004364
111,0,0.635867716791671,0.364132283208329
112,0,0.679576939375108,0.320423060624892
113,1,0.0932171605556231,0.906782839444377
114,1,0.424915848884727,0.575084151115273
115,1,0.439697007416716,0.560302992583284
116,1,0.0319159017901646,0.968084098209835
117,0,0.583956894713459,0.416043105286541
118,1,0.435724456008612,0.564275543991388
119,1,0.286615803107792,0.713384196892208
120,0,0.632435274116241,0.367564725883759
121,1,0.181592437550359,0.818407562449641
122,1,0.339742592916332,0.660257407083668
123,0,0.698718971381903,0.301281028618097
124,0,0.731398150471116,0.268601849528884
125,0,0.754274072672064,0.245725927327936
126,1,0.461873620800428,0.538126379199572
127,1,0.258521992226236,0.741478007773764
128,1,0.232968854632032,0.767031145367968
129,0,0.8685613199068,0.1314386800932
130,0,0.913737026875453,0.086262973124547
131,0,0.823472159227814,0.176527840772186
132,1,0.487900342220444,0.512099657779556
133,0,0.573836572382147,0.426163427617853
134,1,0.438552600821283,0.561447399178717
135,1,0.313195579227651,0.686804420772349
136,1,0.220262861011331,0.779737138988669
137,0,0.757579168626543,0.242420831373457
138,0,0.838435539165517,0.161564460834483
139,0,0.849867158649022,0.150132841350978
140,0,0.987912313685846,0.0120876863141544
141,1,0.454815743167349,0.545184256832651
142,1,0.26772563079189,0.73227436920811
143,0,0.962616463001887,0.037383536998113
144,0,0.911775791803192,0.0882242081968075
145,1,0.282310688754912,0.717689311245088
146,1,0.282055603264967,0.717944396735033
147,0,0.778169559004844,0.221830440995156
148,1,0.256235066509039,0.743764933490961
149,1,0.247498106666893,0.752501893333107
150,0,0.74228475190341,0.25771524809659
151,1,0.270749714431178,0.729250285568822
152,1,0.403439420904649,0.596560579095351
153,0,0.547103180147045,0.452896819852955
154,0,0.529139092711045,0.470860907288955
155,0,0.544403566065713,0.455596433934287
156,1,0.203198901999164,0.796801098000836
157,1,0.427894331701085,0.572105668298915
158,1,0.184739383451858,0.815260616548142
159,0,0.598999537467787,0.401000462532213
160,1,0.219616176479393,0.780383823520607
161,0,0.740604968905592,0.259395031094408
162,0,0.835171227133757,0.164828772866243
163,0,0.593587171623661,0.406412828376339
164,1,0.416769491180913,0.583230508819087
165,0,0.91438365456413,0.08561634543587
166,1,0.204084378180705,0.795915621819295
167,1,0.219711274146607,0.780288725853393
168,0,0.653361797561897,0.346638202438103
169,0,0.77640182038554,0.22359817961446
170,1,0.257661599368688,0.742338400631312
171,1,0.288103068562415,0.711896931437585
172,1,0.240918584666952,0.759081415333048
173,1,0.382560691413107,0.617439308586893
174,0,0.665924260547319,0.334075739452681
175,0,0.829983762560807,0.170016237439193
176,1,0.306639010964388,0.693360989035612
177,0,0.843184293468989,0.156815706531011
178,0,0.953555033876341,0.0464449661236592
179,1,0.132533257505523,0.867466742494477
180,1,0.498111294476773,0.501888705523227
181,0,0.913748500756604,0.0862514992433959
182,0,0.938251436479401,0.0617485635205995
183,0,0.987021712041416,0.0129782879585842
184,0,0.932924167594811,0.0670758324051891
185,0,0.876161748114004,0.123838251885996
186,0,0.891416739611995,0.108583260388005
187,1,0.315096814886362,0.684903185113638
188,0,0.93787214245408,0.0621278575459204
189,1,0.437554011346486,0.562445988653514
190,1,0.143774627394818,0.856225372605182
191,0,0.846075810044076,0.153924189955924
192,0,0.7508216539996,0.2491783460004
193,1,0.277200047830225,0.722799952169775
194,0,0.775240726343872,0.224759273656128
195,0,0.657491086715009,0.342508913284991
196,0,0.968895186915464,0.0311048130845356
197,0,0.542082125925444,0.457917874074556
198,0,0.597616165716863,0.402383834283137
199,1,0.264843952730673,0.735156047269327
200,1,0.386563365720548,0.613436634279452
201,0,0.884186497788229,0.115813502211771
202,0,0.969246345373069,0.0307536546269313
203,0,0.921935160594981,0.0780648394050189
204,1,0.286784670399878,0.713215329600122
205,0,0.591370125648741,0.408629874351259
206,0,0.534918111967746,0.465081888032254
207,1,0.188923521223741,0.811076478776259
208,0,0.848082992751062,0.151917007248938
209,0,0.814136335524155,0.185863664475845
210,1,0.047855268010883,0.952144731989117
211,0,0.718168803039015,0.281831196960985
212,0,0.823999284247763,0.176000715752237
213,0,0.589746986061243,0.410253013938757
214,1,0.207481294319895,0.792518705680105
215,1,0.292530722107716,0.707469277892284
216,0,0.844506396862162,0.155493603137838
217,0,0.5925001420306,0.4074998579694
218,1,0.352058340318507,0.647941659681493
219,1,0.221862696235629,0.778137303764371
220,1,0.480996245079874,0.519003754920126
221,1,0.393413235434578,0.606586764565422
222,0,0.836535161289789,0.163464838710211
223,0,0.965146959103168,0.0348530408968317
224,1,0.303553361723165,0.696446638276835
225,0,0.800626959496564,0.199373040503436
226,0,0.856777621190513,0.143222378809487
227,1,0.0677017881142192,0.932298211885781
228,1,0.0825559676350014,0.917444032364999
229,0,0.501158706673637,0.498841293326363
230,0,0.557923062004194,0.442076937995806
231,1,0.490605293664624,0.509394706335376
232,0,0.6271928151603,0.3728071848397
233,1,0.378045264312794,0.621954735687206
234,1,0.460286473005708,0.539713526994292
235,1,0.42695685387175,0.57304314612825
236,0,0.952334980244447,0.0476650197555529
237,1,0.255666452605133,0.744333547394867
238,1,0.385755998916945,0.614244001083055
239,0,0.619759751160362,0.380240248839638
240,0,0.92108740241295,0.0789125975870496
241,0,0.926504585853782,0.073495414146218
242,0,0.815509009080126,0.184490990919874
243,0,0.638190024177882,0.361809975822118
244,1,0.377601145013215,0.622398854986785
245,0,0.739215545686993,0.260784454313007
246,0,0.522269051373121,0.477730948626879
247,0,0.843587016809856,0.156412983190144
248,1,0.207766907208661,0.792233092791339
249,0,0.688922330535108,0.311077669464892
250,0,0.709539722367642,0.290460277632358
251,0,0.796647025870753,0.203352974129247
252,0,0.585527879440948,0.414472120559052
253,0,0.664980181547857,0.335019818452143
254,1,0.396933272222975,0.603066727777025
255,0,0.575588753959995,0.424411246040005
256,1,0.355862143855429,0.644137856144571
257,1,0.43293876577925,0.56706123422075
258,1,0.431740542454034,0.568259457545966
259,0,0.58771072222809,0.41228927777191
260,1,0.317182917190297,0.682817082809703
261,0,0.789992989200435,0.210007010799565
262,1,0.188457996578853,0.811542003421147
263,0,0.803528319485538,0.196471680514462
264,0,0.688173403006169,0.311826596993831
265,0,0.533743321189894,0.466256678810106
266,0,0.812718299505624,0.187281700494376
267,1,0.255616669200758,0.744383330799242
268,0,0.545975010918204,0.454024989081796
269,0,0.756048234697229,0.243951765302771
270,1,0.341374729970423,0.658625270029577
271,0,0.916420204529618,0.0835797954703818
272,0,0.986721289862164,0.0132787101378362
273,1,0.417980423327969,0.582019576672031
274,0,0.920657715153393,0.0793422848466067
275,0,0.943883584310201,0.0561164156897986
276,0,0.52002391043312,0.47997608956688
277,0,0.810057055788963,0.189942944211037
278,0,0.989664040459681,0.0103359595403194
279,0,0.820100820343033,0.179899179656967
280,0,0.699275883668453,0.300724116331547
281,0,0.833400521658845,0.166599478341155
282,0,0.908377919555502,0.0916220804444976
283,0,0.879962270799102,0.120037729200898
284,0,0.505578850685507,0.494421149314493
285,0,0.948570044229638,0.0514299557703618
286,0,0.939303662365554,0.0606963376344464
287,0,0.87344629869916,0.12655370130084
288,1,0.369155821168427,0.630844178831573
289,0,0.831934835775652,0.168065164224349
290,0,0.794143135887524,0.205856864112476
291,0,0.915835738843836,0.0841642611561638
292,0,0.854605529844163,0.145394470155837
293,0,0.953588143658501,0.0464118563414987
294,0,0.91029314678416,0.0897068532158401
295,0,0.762464041716227,0.237535958283773
296,1,0.204547995849976,0.795452004150024
297,0,0.539221886242302,0.460778113757698
298,0,0.874174369791241,0.125825630208759
299,0,0.853968272176437,0.146031727823563
300,0,0.742375789991132,0.257624210008868
301,0,0.713718139407905,0.286281860592095
302,0,0.798381295301098,0.201618704698902
303,0,0.531201424642781,0.468798575357219
304,0,0.821156187858546,0.178843812141454
305,1,0.304280853907836,0.695719146092164
306,0,0.72184849958675,0.27815150041325
307,0,0.783259404255327,0.216740595744673
308,0,0.504292181593911,0.495707818406089
309,1,0.348698580305222,0.651301419694778
310,1,0.198317986572073,0.801682013427927
311,0,0.754135087297637,0.245864912702363
312,0,0.731731989238898,0.268268010761102
313,1,0.299827931479045,0.700172068520955
314,1,0.411569338857435,0.588430661142565
315,1,0.321532665424178,0.678467334575822
316,1,0.496482129719255,0.503517870280745
317,0,0.679174748887842,0.320825251112158
318,1,0.42562149128228,0.57437850871772
319,0,0.999008118394948,0.000991881605051918
320,0,0.52464171977517,0.47535828022483
321,1,0.461254564350048,0.538745435649952
322,1,0.287974812715742,0.712025187284258
323,0,0.690871135950477,0.309128864049523
324,0,0.705671572221883,0.294328427778117
325,0,0.590484730439583,0.409515269560417
326,1,0.305282626105675,0.694717373894325
327,1,0.357368075762017,0.642631924237983
328,0,0.808432082219008,0.191567917780992
329,1,0.363028048437508,0.636971951562492
330,0,0.856782769617958,0.143217230382042
331,1,0.141069571898068,0.858930428101932
332,0,0.573430324658734,0.426569675341266
333,0,0.6361326004919,0.3638673995081
334,1,0.489359932215212,0.510640067784788
335,1,0.382019753106879,0.617980246893121
336,1,0.215489239823468,0.784510760176532
337,0,0.773043972730011,0.226956027269989
338,0,0.947749733063051,0.0522502669369488
339,1,0.370915317498535,0.629084682501465
340,1,0.373078427439681,0.626921572560319
341,0,0.918338661612789,0.0816613383872111
342,0,0.716479626813804,0.283520373186196
343,1,0.300078596604479,0.699921403395521
344,0,0.668065068301575,0.331934931698425
345,1,0.281345752999149,0.718654247000851
346,1,0.277887835257058,0.722112164742942
347,0,0.814283043472257,0.185716956527743
348,1,0.32454937554829,0.67545062445171
349,1,0.356574910212035,0.643425089787965
350,0,0.683195135629124,0.316804864370876
351,1,0.222136235057902,0.777863764942098
352,0,0.796038209828112,0.203961790171888
353,1,0.384087562753239,0.615912437246761
354,1,0.470400330123447,0.529599669876553
355,1,0.351444755240563,0.648555244759437
356,1,0.402692092206312,0.597307907793688
357,0,0.645368622376653,0.354631377623347
358,0,0.990100704100828,0.00989929589917155
359,0,0.817018073693708,0.182981926306292
360,1,0.311672422120888,0.688327577879112
361,0,0.540753940728073,0.459246059271927
362,0,0.807489295083917,0.192510704916083
363,0,0.959444383540273,0.0405556164597273
364,0,0.843796238090735,0.156203761909265
365,0,0.650508778659554,0.349491221340446
366,0,0.718841699652859,0.281158300347141
367,1,0.493741608080753,0.506258391919247
368,0,0.816143376449438,0.183856623550562
369,0,0.758914535678568,0.241085464321432
370,0,0.967924580586828,0.0320754194131718
371,0,0.922268536877222,0.0777314631227785
372,1,0.256003140729556,0.743996859270444
373,1,0.313004573694596,0.686995426305404
374,1,0.403489006475915,0.596510993524085
375,0,0.890020290218241,0.109979709781759
376,0,0.891184472073066,0.108815527926934
377,0,0.8747423962448,0.1252576037552
378,0,0.93035369652533,0.0696463034746698
379,1,0.441593868602256,0.558406131397744
380,1,0.237646037136142,0.762353962863858
381,0,0.857830129414442,0.142169870585558
382,1,0.162585766315861,0.837414233684139
383,0,0.853014821582169,0.146985178417831
384,1,0.157008572828611,0.842991427171389
385,0,0.949021086750298,0.0509789132497026
386,0,0.920350057521964,0.0796499424780361
387,0,0.508435245411877,0.491564754588123
388,0,0.746139628706475,0.253860371293525
389,1,0.395427679043692,0.604572320956308
390,1,0.309640457797972,0.690359542202028
391,0,0.908048607883894,0.0919513921161056
392,0,0.507783027712645,0.492216972287355
393,1,0.360225576882195,0.639774423117805
394,0,0.827040279907551,0.172959720092449
395,1,0.373788658372865,0.626211341627135
396,1,0.424842823320753,0.575157176679247
397,0,0.801601026780657,0.198398973219343
398,0,0.694057591800943,0.305942408199057
399,0,0.532217270276182,0.467782729723818
400,0,0.712060313265156,0.287939686734844
401,1,0.345005680192772,0.654994319807228
402,0,0.70278474810889,0.29721525189111
403,0,0.790798384753004,0.209201615246996
404,0,0.887149341155963,0.112850658844037
405,0,0.968467955439062,0.0315320445609384
406,1,0.451040442429271,0.548959557570729
407,0,0.508375869363441,0.491624130636559
408,0,0.934556411694911,0.0654435883050886
409,0,0.572461645064138,0.427538354935862
410,0,0.69830547204673,0.30169452795327
411,1,0.482039951349214,0.517960048650786
412,1,0.252856418424539,0.747143581575461
413,0,0.765989111531914,0.234010888468086
414,0,0.713646677792145,0.286353322207855
415,0,0.904426442552551,0.0955735574474494
416,1,0.493277449819938,0.506722550180062
417,0,0.634972792795756,0.365027207204244
418,0,0.623261163625882,0.376738836374118
419,0,0.887742951266059,0.112257048733941
420,1,0.460427172559155,0.539572827440845
421,1,0.294277172546916,0.705722827453084
422,1,0.34093521953048,0.65906478046952
423,0,0.53622054835467,0.46377945164533
424,1,0.297933722852126,0.702066277147874
425,1,0.46953190950425,0.53046809049575
426,0,0.704034635683063,0.295965364316937
427,1,0.470073326886048,0.529926673113952
428,1,0.359491453425699,0.640508546574301
429,0,0.903416590589912,0.0965834094100876
430,0,0.799622884965142,0.200377115034858
431,1,0.366415956718873,0.633584043281127
432,0,0.855905876180079,0.144094123819921
433,0,0.950380176509164,0.0496198234908362
434,0,0.963213920956151,0.0367860790438488
435,1,0.259901981295491,0.740098018704509
436,0,0.508974350855957,0.491025649144043
437,1,0.374389212836488,0.625610787163512
438,1,0.321490825838189,0.678509174161811
439,1,0.264137684756073,0.735862315243927
440,1,0.189975861408523,0.810024138591477
441,1,0.216315705044438,0.783684294955562
442,0,0.732653161479082,0.267346838520918
443,1,0.26372907155812,0.73627092844188
444,0,0.803158847333384,0.196841152666616
445,0,0.695957681229955,0.304042318770045
446,0,0.795809578694799,0.204190421305201
447,1,0.294235269879912,0.705764730120088
448,1,0.267766506532973,0.732233493467027
449,1,0.253627830558372,0.746372169441628
450,1,0.249601212013026,0.750398787986974
451,0,0.828890248213785,0.171109751786215
452,1,0.197955739027506,0.802044260972494
453,0,0.569684422037618,0.430315577962382
454,0,0.894376531734323,0.105623468265677
455,1,0.331218022895236,0.668781977104764
456,0,0.958588276020908,0.0414117239790922
457,1,0.406659725569153,0.593340274430847
458,0,0.651410167400251,0.348589832599749
459,0,0.542925684592409,0.457074315407591
460,0,0.940778720951779,0.0592212790482209
461,0,0.999787331339386,0.00021266866061383
462,1,0.104471968214359,0.895528031785641
463,0,0.57342633210292,0.42657366789708
464,1,0.371440104952054,0.628559895047946
465,1,0.107360068826836,0.892639931173164
466,1,0.294351670199513,0.705648329800487
467,0,0.715808709890673,0.284191290109327
468,0,0.984521947562062,0.0154780524379381
469,0,0.692948847681231,0.307051152318769
470,0,0.929100416745622,0.0708995832543779
471,0,0.98081133485346,0.0191886651465405
472,0,0.732299184044486,0.267700815955514
473,1,0.319242032720316,0.680757967279684
474,0,0.973766023777735,0.0262339762222654
475,0,0.933204873442273,0.066795126557727
476,0,0.952444519213251,0.0475554807867485
477,0,0.74962792280404,0.25037207719596
478,0,0.841453532944791,0.158546467055209
479,0,0.912271151171136,0.0877288488288636
480,0,0.939102397275555,0.0608976027244451
481,0,0.698042571441977,0.301957428558023
482,0,0.893274171586424,0.106725828413576
483,0,0.828213827850765,0.171786172149235
484,1,0.428514686520711,0.571485313479289
485,0,0.690609002026693,0.309390997973307
486,1,0.214603200480404,0.785396799519596
487,0,0.869912177686456,0.130087822313544
488,0,0.743559046168004,0.256440953831996
489,0,0.898235704253884,0.101764295746116
490,0,0.656759644867504,0.343240355132496
491,0,0.575900341918229,0.424099658081771
492,1,0.497895470851563,0.502104529148437
493,1,0.434582589624888,0.565417410375112
494,0,0.636426512442267,0.363573487557733
495,0,0.937652893626402,0.0623471063735984
496,1,0.362281191283721,0.637718808716279
497,0,0.587971441890797,0.412028558109203
498,0,0.9435403810481,0.0564596189519003
499,1,0.377339009642721,0.622660990357279
500,0,0.799935742086437,0.200064257913563
501,1,0.442937873468238,0.557062126531762
502,1,0.277896386135675,0.722103613864325
503,0,0.903012609519466,0.0969873904805336
504,0,0.987511046453385,0.0124889535466145
505,1,0.349069098465023,0.650930901534977
506,1,0.18006316393317,0.81993683606683
507,0,0.678564035858164,0.321435964141836
508,1,0.280545147939282,0.719454852060718
509,0,0.905763713624234,0.0942362863757661
510,1,0.408605110331554,0.591394889668446
511,0,0.529934021778521,0.470065978221479
512,1,0.390212758179866,0.609787241820134
513,1,0.304279555750033,0.695720444249967
514,1,0.160400738541616,0.839599261458384
515,1,0.207569173544462,0.792430826455538
516,0,0.69869670442101,0.30130329557899
517,1,0.134356415636285,0.865643584363715
518,0,0.630200711515912,0.369799288484088
519,0,0.826221807569083,0.173778192430917
520,0,0.639840888174291,0.360159111825709
521,1,0.362208520030109,0.637791479969891
522,0,0.960395672568592,0.0396043274314076
523,1,0.487663534441706,0.512336465558294
524,0,0.806325198539305,0.193674801460695
525,1,0.38636209229058,0.61363790770942
526,0,0.774817479701206,0.225182520298795
527,0,0.952525837658777,0.047474162341223
528,0,0.607967016219131,0.392032983780869
529,0,0.540440758204091,0.459559241795909
530,1,0.181208954148125,0.818791045851875
531,1,0.211194554781066,0.788805445218934
532,0,0.617059338137927,0.382940661862073
533,1,0.25629767594914,0.74370232405086
534,0,0.668567093861318,0.331432906138682
535,1,0.192755557070376,0.807244442929624
536,1,0.417444017035242,0.582555982964758
537,1,0.265236248339124,0.734763751660876
538,0,0.508178583150898,0.491821416849102
539,0,0.648060278100673,0.351939721899327
540,0,0.787034596241477,0.212965403758523
541,0,0.509478856269264,0.490521143730736
542,1,0.357843107615909,0.642156892384091
543,0,0.708638316684097,0.291361683315903
544,1,0.497082639207725,0.502917360792275
545,1,0.40050688193976,0.59949311806024
546,1,0.454105479169501,0.545894520830499
547,1,0.440577979327148,0.559422020672852
548,1,0.412013173611674,0.587986826388326
549,1,0.400886191844108,0.599113808155892
550,1,0.102539689463242,0.897460310536758
551,1,0.117146732293666,0.882853267706334
552,0,0.570421643114333,0.429578356885667
553,0,0.608733033478747,0.391266966521253
554,1,0.431503877044806,0.568496122955194
555,1,0.121170396889589,0.878829603110411
556,1,0.0533047342067995,0.946695265793201
557,1,0.19628535934671,0.80371464065329
558,1,0.1276128133341,0.8723871866659
559,1,0.296305699489144,0.703694300510856
560,1,0.294345130018613,0.705654869981387
561,0,0.837807765223019,0.162192234776981
562,1,0.284931987106748,0.715068012893252
563,1,0.273018979020242,0.726981020979758
564,0,0.92368024724329,0.0763197527567101
565,1,0.484116124143037,0.515883875856963
566,0,0.534559992041005,0.465440007958995
567,1,0.226659046010131,0.773340953989869
568,0,0.774897482257655,0.225102517742345
569,1,0.176627966920587,0.823372033079413
570,1,0.374635554190823,0.625364445809177
571,0,0.888847209675595,0.111152790324405
572,0,0.809978405761976,0.190021594238024
573,0,0.894041192582374,0.105958807417626
574,0,0.576544075380313,0.423455924619687
575,0,0.585021933105681,0.414978066894319
576,0,0.941958138933788,0.058041861066212
577,0,0.670029545031156,0.329970454968844
578,1,0.231572128399626,0.768427871600374
579,0,0.592446814575452,0.407553185424548
580,1,0.23783910086127,0.76216089913873
581,1,0.234449917862032,0.765550082137968
582,1,0.175674226989442,0.824325773010558
583,0,0.808733011129733,0.191266988870268
584,0,0.935122935268619,0.0648770647313811
585,0,0.780542776616242,0.219457223383758
586,1,0.376914750143355,0.623085249856645
587,0,0.923566117724478,0.0764338822755218
588,1,0.24400637015618,0.75599362984382
589,0,0.699164348464372,0.300835651535628
590,1,0.416616410100358,0.583383589899642
591,1,0.247212876982397,0.752787123017603
592,0,0.748236958947441,0.251763041052559
593,0,0.721605977540344,0.278394022459656
594,0,0.524856943738751,0.475143056261249
595,0,0.561186935684799,0.438813064315201
596,1,0.41700991094589,0.58299008905411
597,1,0.474206672985881,0.525793327014119
598,0,0.546376459852252,0.453623540147748
599,0,0.800875721190485,0.199124278809515
600,1,0.185686835241676,0.814313164758324
601,1,0.302926548438387,0.697073451561613
602,1,0.370261496278559,0.629738503721441
603,1,0.271278683026609,0.728721316973391
604,0,0.549824795927428,0.450175204072572
605,0,0.659534391671245,0.340465608328755
606,1,0.275967594736612,0.724032405263388
607,0,0.581211637409017,0.418788362590983
608,1,0.400777099481083,0.599222900518917
609,0,0.674300540577638,0.325699459422362
610,1,0.202356659505974,0.797643340494026
611,0,0.576831428078882,0.423168571921118
612,1,0.285523164723639,0.714476835276361
613,1,0.240038284287837,0.759961715712163
614,1,0.409296421794775,0.590703578205225
615,0,0.798390329636205,0.201609670363795
616,1,0.386470798190085,0.613529201809915
617,0,0.516921763157776,0.483078236842224
618,1,0.23238883822108,0.76761116177892
619,1,0.408522828182952,0.591477171817048
620,1,0.264397402612186,0.735602597387814
621,1,0.305574209852235,0.694425790147765
622,1,0.384611204457002,0.615388795542998
623,1,0.386000194008889,0.613999805991111
624,1,0.484451488086348,0.515548511913652
625,1,0.275058990482833,0.724941009517167
626,1,0.16154952850587,0.83845047149413
627,0,0.52544805688676,0.47455194311324
628,1,0.221299492433808,0.778700507566192
629,0,0.907728524389224,0.0922714756107755
630,0,0.921463407429374,0.0785365925706261
631,0,0.951932935878943,0.0480670641210571
632,0,0.747991866071221,0.252008133928779
633,1,0.314046234902977,0.685953765097023
634,1,0.312793323661578,0.687206676338422
635,0,0.889466730971562,0.110533269028438
636,0,0.562409062159037,0.437590937840963
637,0,0.903735157709832,0.0962648422901679
638,0,0.649382332366881,0.350617667633119
639,0,0.591381066046328,0.408618933953672
640,1,0.190683071394696,0.809316928605304
641,1,0.293637800586797,0.706362199413203
642,1,0.178364459003628,0.821635540996372
643,0,0.754299964870216,0.245700035129784
644,0,0.815354811934175,0.184645188065825
645,1,0.291256086567337,0.708743913432663
646,1,0.249989792810022,0.750010207189978
647,0,0.982185116600712,0.0178148833992883
648,1,0.340272134984882,0.659727865015118
649,0,0.824235728100707,0.175764271899293
650,0,0.952521667949586,0.0474783320504143
651,1,0.422652848081154,0.577347151918846
652,0,0.950910191446493,0.0490898085535068
653,0,0.688308315193543,0.311691684806457
654,0,0.842429259066499,0.157570740933501
655,0,0.950287182441895,0.0497128175581053
656,0,0.912724981936096,0.0872750180639036
657,0,0.847033542433239,0.152966457566761
658,0,0.524295954333157,0.475704045666843
659,0,0.771952073907819,0.228047926092181
660,0,0.820079409430681,0.179920590569319
661,0,0.765838630003679,0.234161369996321
662,0,0.868560560574434,0.131439439425566
663,1,0.208587907402153,0.791412092597847
664,0,0.87416602600313,0.12583397399687
665,0,0.738536155195865,0.261463844804135
666,1,0.237900003758867,0.762099996241133
667,0,0.748081520375619,0.251918479624381
668,0,0.867752345796994,0.132247654203006
669,1,0.16194776946272,0.83805223053728
670,0,0.789387297627731,0.210612702372269
671,0,0.640898519833388,0.359101480166612
672,0,0.630939202843267,0.369060797156733
673,1,0.475934150991756,0.524065849008244
674,0,0.564800980369881,0.435199019630119
675,0,0.59768386180259,0.40231613819741
676,0,0.773821432305008,0.226178567694992
677,1,0.443296698404397,0.556703301595603
678,0,0.549892618742014,0.450107381257986
679,0,0.524473432657574,0.475526567342427
680,0,0.508905041357719,0.491094958642281
681,1,0.278044794671197,0.721955205328803
682,1,0.461442332405644,0.538557667594356
683,1,0.164342254057064,0.835657745942936
684,0,0.509471860402928,0.490528139597072
685,1,0.32216765760309,0.67783234239691
686,0,0.694279234900806,0.305720765099194
